#VRML V2.0 utf8

# Produced by 3D Exploration VRML exporter
# http://www.xdsoft.com/explorer/

DEF Frm Transform {
  scale 0.001 0.001 0.001
rotation 1 0 0 1.57
##  rotation 0 -1 0 -1.5708
  children [
    DEF object Transform {
##      rotation 0 1 0 -1.5708
      children [
        DEF object1 Transform {
          children [
            Shape {
					appearance Appearance {
						material Material {
##              diffuseColor 0.85 0.90 0.85
              diffuseColor 0.50 0.70 0.60
						}
					}
              geometry IndexedFaceSet {
                coord Coordinate { point [
                  70 22 -93.4258,68.7709 22 -94.655,70 22 -130,36.155 22 -111.274,0 22 -117,-70 22 -130,-36.155 22 -111.274,-68.7709 22 -94.655,
                  -70 22 -93.4259,-70 22 -83.6483,-70 164 -83.6483,-70 164 -130,70 22 -83.6482,70 164 -83.6482,70 164 -130,64.6564 164 -88.9919,
                  33.9919 164 -104.616,0 164 -110,-33.9919 164 -104.616,-64.6564 164 -88.9919,88.9919 22 -64.6564,88.9919 200 -64.6564,
                  64.6564 200 -88.9919,33.9919 200 -104.616,0 200 -110,-33.9919 200 -104.616,-64.6564 200 -88.9919,94.655 22 -68.7709,
                  111.274 22 -36.155,104.616 22 -33.9919,117 22 0,110 22 0,104.616 22 33.9919,111.274 22 36.155,88.9919 22 64.6564,
                  94.655 22 68.7709,64.6564 22 88.9919,68.7709 22 94.655,33.9919 22 104.616,36.155 22 111.274,0 22 110,0 22 117,
                  -36.155 22 111.274,-33.9919 22 104.616,-68.7709 22 94.655,-64.6564 22 88.9919,-94.655 22 68.7709,-88.9919 22 64.6564,
                  -111.274 22 36.155,-104.616 22 33.9919,-117 22 0,-110 22 0,-104.616 22 -33.9919,-111.274 22 -36.155,-88.9919 22 -64.6564,
                  -94.655 22 -68.7709,-88.9919 200 -64.6564,-17.1813 201.5 52.8787,-32.6809 201.5 44.9813,-17.1813 200 52.8787,
                  -32.6809 200 44.9813,-44.9813 201.5 32.6809,-44.9813 200 32.6809,-52.8787 201.5 17.1813,-52.8787 200 17.1813,-55.6 201.5 0,
                  -55.6 200 0,-52.8787 201.5 -17.1813,-52.8787 200 -17.1813,-44.9813 201.5 -32.6809,-44.9813 200 -32.6809,
                  -32.6809 201.5 -44.9813,-32.6809 200 -44.9813,-17.1813 201.5 -52.8787,-17.1813 200 -52.8787,0 201.5 -55.6,0 200 -55.6,
                  17.1813 201.5 -52.8787,17.1813 200 -52.8787,32.6809 201.5 -44.9813,32.6809 200 -44.9813,44.9813 201.5 -32.6809,
                  44.9813 200 -32.6809,52.8787 201.5 -17.1813,52.8787 200 -17.1813,55.6 201.5 0,55.6 200 0,52.8787 201.5 17.1813,
                  52.8787 200 17.1813,44.9813 201.5 32.6809,44.9813 200 32.6809,32.6809 201.5 44.9813,32.6809 200 44.9813,17.1813 201.5 52.8787,
                  17.1813 200 52.8787,0 201.5 55.6,0 200 55.6,-33.9919 200 104.616,-64.6564 200 88.9919,-88.9919 200 64.6564,
                  -104.616 200 33.9919,-110 200 0,-104.616 200 -33.9919,104.616 200 -33.9919,110 200 0,104.616 200 33.9919,88.9919 200 64.6564,
                  64.6564 200 88.9919,33.9919 200 104.616,0 200 110,-68.7709 12 94.655,-36.155 12 111.274,-94.655 12 68.7709,-111.274 12 36.155,
                  -117 12 0,-111.274 12 -36.155,-94.655 12 -68.7709,-68.7709 12 -94.655,-36.155 12 -111.274,0 12 -117,36.155 12 -111.274,
                  68.7709 12 -94.655,94.655 12 -68.7709,111.274 12 -36.155,117 12 0,111.274 12 36.155,94.655 12 68.7709,68.7709 12 94.655,
                  36.155 12 111.274,0 12 117]
                }
                coordIndex [
                  0, 1, 2, -1,
                  2, 1, 3, -1,
                  4, 2, 3, -1,
                  4, 5, 2, -1,
                  4, 6, 5, -1,
                  5, 6, 7, -1,
                  8, 5, 7, -1,
                  9, 10, 8, -1,
                  8, 10, 11, -1,
                  5, 8, 11, -1,
                  12, 0, 13, -1,
                  13, 0, 14, -1,
                  14, 0, 2, -1,
                  13, 14, 15, -1,
                  15, 14, 16, -1,
                  16, 14, 17, -1,
                  17, 14, 11, -1,
                  18, 11, 19, -1,
                  18, 17, 11, -1,
                  11, 10, 19, -1,
                  11, 14, 5, -1,
                  5, 14, 2, -1,
                  12, 13, 20, -1,
                  20, 13, 21, -1,
                  21, 13, 22, -1,
                  22, 13, 15, -1,
                  16, 23, 15, -1,
                  15, 23, 22, -1,
                  17, 24, 16, -1,
                  16, 24, 23, -1,
                  18, 25, 17, -1,
                  17, 25, 24, -1,
                  18, 19, 25, -1,
                  25, 19, 26, -1,
                  0, 12, 27, -1,
                  27, 12, 20, -1,
                  28, 20, 29, -1,
                  30, 29, 31, -1,
                  32, 30, 31, -1,
                  32, 33, 30, -1,
                  32, 34, 33, -1,
                  33, 34, 35, -1,
                  35, 34, 36, -1,
                  37, 36, 38, -1,
                  39, 38, 40, -1,
                  41, 40, 42, -1,
                  41, 39, 40, -1,
                  27, 20, 28, -1,
                  28, 29, 30, -1,
                  35, 36, 37, -1,
                  37, 38, 39, -1,
                  40, 43, 42, -1,
                  42, 43, 44, -1,
                  44, 43, 45, -1,
                  46, 45, 47, -1,
                  48, 47, 49, -1,
                  50, 49, 51, -1,
                  52, 50, 51, -1,
                  52, 53, 50, -1,
                  52, 54, 53, -1,
                  53, 54, 55, -1,
                  55, 54, 9, -1,
                  8, 55, 9, -1,
                  44, 45, 46, -1,
                  46, 47, 48, -1,
                  48, 49, 50, -1,
                  19, 10, 26, -1,
                  26, 10, 56, -1,
                  56, 10, 54, -1,
                  54, 10, 9, -1,
                  57, 58, 59, -1,
                  59, 58, 60, -1,
                  58, 61, 60, -1,
                  60, 61, 62, -1,
                  61, 63, 62, -1,
                  62, 63, 64, -1,
                  63, 65, 64, -1,
                  64, 65, 66, -1,
                  65, 67, 66, -1,
                  66, 67, 68, -1,
                  67, 69, 68, -1,
                  68, 69, 70, -1,
                  69, 71, 70, -1,
                  70, 71, 72, -1,
                  71, 73, 72, -1,
                  72, 73, 74, -1,
                  73, 75, 74, -1,
                  74, 75, 76, -1,
                  77, 78, 75, -1,
                  75, 78, 76, -1,
                  79, 80, 77, -1,
                  77, 80, 78, -1,
                  81, 82, 79, -1,
                  79, 82, 80, -1,
                  83, 84, 81, -1,
                  81, 84, 82, -1,
                  85, 86, 83, -1,
                  83, 86, 84, -1,
                  87, 88, 85, -1,
                  85, 88, 86, -1,
                  89, 90, 87, -1,
                  87, 90, 88, -1,
                  91, 92, 89, -1,
                  89, 92, 90, -1,
                  93, 94, 91, -1,
                  91, 94, 92, -1,
                  93, 95, 94, -1,
                  94, 95, 96, -1,
                  95, 57, 96, -1,
                  96, 57, 59, -1,
                  57, 95, 58, -1,
                  58, 95, 93, -1,
                  91, 58, 93, -1,
                  91, 61, 58, -1,
                  91, 89, 61, -1,
                  61, 89, 63, -1,
                  63, 89, 87, -1,
                  65, 87, 67, -1,
                  65, 63, 87, -1,
                  87, 85, 67, -1,
                  67, 85, 83, -1,
                  81, 67, 83, -1,
                  81, 69, 67, -1,
                  81, 71, 69, -1,
                  81, 73, 71, -1,
                  81, 79, 73, -1,
                  73, 79, 77, -1,
                  75, 73, 77, -1,
                  97, 98, 43, -1,
                  43, 98, 45, -1,
                  99, 47, 98, -1,
                  98, 47, 45, -1,
                  100, 49, 99, -1,
                  99, 49, 47, -1,
                  101, 51, 100, -1,
                  100, 51, 49, -1,
                  102, 52, 101, -1,
                  101, 52, 51, -1,
                  56, 54, 102, -1,
                  102, 54, 52, -1,
                  103, 29, 21, -1,
                  21, 29, 20, -1,
                  104, 31, 103, -1,
                  103, 31, 29, -1,
                  105, 32, 104, -1,
                  104, 32, 31, -1,
                  105, 106, 32, -1,
                  32, 106, 34, -1,
                  107, 36, 106, -1,
                  106, 36, 34, -1,
                  108, 38, 107, -1,
                  107, 38, 36, -1,
                  109, 40, 108, -1,
                  108, 40, 38, -1,
                  97, 43, 109, -1,
                  109, 43, 40, -1,
                  60, 98, 59, -1,
                  60, 62, 98, -1,
                  98, 62, 99, -1,
                  99, 62, 100, -1,
                  100, 62, 64, -1,
                  101, 64, 66, -1,
                  102, 66, 68, -1,
                  56, 68, 70, -1,
                  72, 56, 70, -1,
                  72, 26, 56, -1,
                  72, 74, 26, -1,
                  26, 74, 25, -1,
                  25, 74, 76, -1,
                  24, 76, 23, -1,
                  24, 25, 76, -1,
                  100, 64, 101, -1,
                  101, 66, 102, -1,
                  102, 68, 56, -1,
                  76, 78, 23, -1,
                  23, 78, 22, -1,
                  22, 78, 80, -1,
                  82, 22, 80, -1,
                  82, 21, 22, -1,
                  82, 103, 21, -1,
                  82, 84, 103, -1,
                  103, 84, 86, -1,
                  104, 86, 105, -1,
                  104, 103, 86, -1,
                  86, 88, 105, -1,
                  105, 88, 90, -1,
                  106, 90, 107, -1,
                  106, 105, 90, -1,
                  90, 92, 107, -1,
                  107, 92, 94, -1,
                  108, 94, 109, -1,
                  108, 107, 94, -1,
                  94, 96, 109, -1,
                  109, 96, 97, -1,
                  97, 96, 59, -1,
                  98, 97, 59, -1,
                  44, 110, 42, -1,
                  42, 110, 111, -1,
                  44, 46, 110, -1,
                  110, 46, 112, -1,
                  48, 113, 46, -1,
                  46, 113, 112, -1,
                  50, 114, 48, -1,
                  48, 114, 113, -1,
                  53, 115, 50, -1,
                  50, 115, 114, -1,
                  55, 116, 53, -1,
                  53, 116, 115, -1,
                  55, 8, 116, -1,
                  116, 8, 117, -1,
                  117, 8, 7, -1,
                  6, 118, 7, -1,
                  7, 118, 117, -1,
                  4, 119, 6, -1,
                  6, 119, 118, -1,
                  4, 3, 119, -1,
                  119, 3, 120, -1,
                  1, 121, 3, -1,
                  3, 121, 120, -1,
                  1, 0, 121, -1,
                  121, 0, 122, -1,
                  122, 0, 27, -1,
                  27, 28, 122, -1,
                  122, 28, 123, -1,
                  30, 124, 28, -1,
                  28, 124, 123, -1,
                  33, 125, 30, -1,
                  30, 125, 124, -1,
                  33, 35, 125, -1,
                  125, 35, 126, -1,
                  37, 127, 35, -1,
                  35, 127, 126, -1,
                  37, 39, 127, -1,
                  127, 39, 128, -1,
                  41, 129, 39, -1,
                  39, 129, 128, -1,
                  42, 111, 41, -1,
                  41, 111, 129, -1,
                  128, 129, 127, -1,
                  127, 129, 111, -1,
                  110, 127, 111, -1,
                  110, 112, 127, -1,
                  127, 112, 126, -1,
                  126, 112, 125, -1,
                  125, 112, 124, -1,
                  124, 112, 113, -1,
                  114, 124, 113, -1,
                  114, 123, 124, -1,
                  114, 115, 123, -1,
                  123, 115, 122, -1,
                  122, 115, 121, -1,
                  121, 115, 116, -1,
                  117, 121, 116, -1,
                  117, 120, 121, -1,
                  117, 118, 120, -1,
                  120, 118, 119, -1
                ]
              }
            }
          ]
        }
      ]
    }
  ]
}
DEF Frm1 Transform {
  scale 0.001 0.001 0.001
rotation 1 0 0 1.57
##  rotation 0 -1 0 -1.5708
  children [
    DEF object11 Transform {
      children [
        DEF object2 Transform {
          children [
            Shape {
					appearance Appearance {
						material Material {
##              diffuseColor 0.85 0.90 0.85
              diffuseColor 0.5 0.7 0.6
						}
					}
              geometry IndexedFaceSet {
                coord Coordinate { point [
                  -68.7709 12 94.655,-68.7709 0 94.655,-36.155 12 111.274,-36.155 0 111.274,-94.655 12 68.7709,-94.655 0 68.7709,
                  -111.274 12 36.155,-111.274 0 36.155,-117 12 0,-117 0 0,-111.274 12 -36.155,-111.274 0 -36.155,-94.655 12 -68.7709,
                  -94.655 0 -68.7709,-68.7709 12 -94.655,-68.7709 0 -94.655,-36.155 12 -111.274,-36.155 0 -111.274,0 12 -117,0 0 -117,
                  36.155 12 -111.274,36.155 0 -111.274,68.7709 12 -94.655,68.7709 0 -94.655,94.655 12 -68.7709,94.655 0 -68.7709,
                  111.274 12 -36.155,111.274 0 -36.155,117 12 0,117 0 0,111.274 12 36.155,111.274 0 36.155,94.655 12 68.7709,94.655 0 68.7709,
                  68.7709 12 94.655,68.7709 0 94.655,36.155 12 111.274,36.155 0 111.274,0 12 117,0 0 117]
                }
                coordIndex [
                  0, 1, 2, -1,
                  2, 1, 3, -1,
                  4, 5, 0, -1,
                  0, 5, 1, -1,
                  6, 7, 4, -1,
                  4, 7, 5, -1,
                  8, 9, 6, -1,
                  6, 9, 7, -1,
                  10, 11, 8, -1,
                  8, 11, 9, -1,
                  12, 13, 10, -1,
                  10, 13, 11, -1,
                  14, 15, 12, -1,
                  12, 15, 13, -1,
                  16, 17, 14, -1,
                  14, 17, 15, -1,
                  18, 19, 16, -1,
                  16, 19, 17, -1,
                  20, 21, 18, -1,
                  18, 21, 19, -1,
                  22, 23, 20, -1,
                  20, 23, 21, -1,
                  24, 25, 22, -1,
                  22, 25, 23, -1,
                  24, 26, 25, -1,
                  25, 26, 27, -1,
                  26, 28, 27, -1,
                  27, 28, 29, -1,
                  30, 31, 28, -1,
                  28, 31, 29, -1,
                  30, 32, 31, -1,
                  31, 32, 33, -1,
                  34, 35, 32, -1,
                  32, 35, 33, -1,
                  36, 37, 34, -1,
                  34, 37, 35, -1,
                  38, 39, 36, -1,
                  36, 39, 37, -1,
                  2, 3, 38, -1,
                  38, 3, 39, -1,
                  2, 38, 0, -1,
                  0, 38, 36, -1,
                  34, 0, 36, -1,
                  34, 32, 0, -1,
                  0, 32, 30, -1,
                  4, 30, 6, -1,
                  4, 0, 30, -1,
                  30, 28, 6, -1,
                  6, 28, 8, -1,
                  8, 28, 10, -1,
                  10, 28, 12, -1,
                  12, 28, 26, -1,
                  24, 12, 26, -1,
                  24, 22, 12, -1,
                  12, 22, 14, -1,
                  14, 22, 16, -1,
                  16, 22, 18, -1,
                  18, 22, 20, -1,
                  37, 39, 35, -1,
                  35, 39, 3, -1,
                  1, 35, 3, -1,
                  1, 33, 35, -1,
                  1, 31, 33, -1,
                  1, 29, 31, -1,
                  1, 5, 29, -1,
                  29, 5, 7, -1,
                  9, 29, 7, -1,
                  9, 11, 29, -1,
                  29, 11, 13, -1,
                  27, 13, 25, -1,
                  27, 29, 13, -1,
                  25, 13, 23, -1,
                  23, 13, 15, -1,
                  17, 23, 15, -1,
                  17, 19, 23, -1,
                  23, 19, 21, -1
                ]
              }
            }
          ]
        }
      ]
    }
  ]
}
DEF Frm2 Transform {
  scale 0.001 0.001 0.001
rotation 1 0 0 1.57
##rotation 0 -1 0 -1.5708
  children [
    DEF object21 Transform {
      children [
        DEF object3 Transform {
##      rotation 0 1 0 3.14
##      rotation 0 0 1 1.57
##      rotation 0 1 0 3.14
          children [
            Shape {
					appearance Appearance {
						material Material {
###              diffuseColor 0.85 0.90 0.85
              diffuseColor 0.5 0.7 0.6
						}
					}
              geometry IndexedFaceSet {
                coord Coordinate { point [
                  -44.9499 18.5001 -167.969,-24.9499 18.5001 -167.969,-44.9499 23.5001 -171.54,-24.9499 23.5001 -171.54,
                  -44.9499 11.5002 -172.969,-24.9499 11.5002 -172.969,-44.9499 12.0814 -173.782,-24.9499 12.0814 -173.782,
                  -44.9499 18.5001 -169.198,-24.9499 18.5001 -169.198,-44.9499 23.5001 -172.769,-24.9499 23.5001 -172.769,
                  -44.9499 121.5 -169.198,-24.9499 121.5 -169.198,-44.9499 116.5 -172.769,-24.9499 116.5 -172.769,-44.9499 127.919 -173.782,
                  -24.9499 127.919 -173.782,-44.9499 128.5 -172.969,-24.9499 128.5 -172.969,-44.9499 121.5 -167.969,-24.9499 121.5 -167.969,
                  -44.9499 116.5 -171.54,-24.9499 116.5 -171.54,-63.9499 23.5001 -171.54,-63.9499 23.5001 -172.769,-5.94994 23.5001 -171.54,
                  -5.94994 23.5001 -172.769,-63.9499 116.5 -172.769,-63.9499 116.5 -171.54,-5.94994 116.5 -172.769,-5.94994 116.5 -171.54,
                  -63.9499 42.9996 -173.5,-56.4499 42.9996 -173.5,-63.9499 41.0001 -173.5,-13.4499 42.9996 -173.5,-5.94994 41.0001 -173.5,
                  -5.94994 42.9996 -173.5,-56.4499 43.0001 -173.5,-13.4499 43.0001 -173.5,-56.4499 37.7501 -170.469,-13.4499 37.7501 -170.469,
                  -56.4499 32.5001 -170.469,-13.4499 32.5001 -170.469,-5.94994 37.4822 -171.469,-63.9499 37.4822 -171.469,
                  -5.94994 32.6731 -171.469,-63.9499 32.6731 -171.469,-5.94994 25.3442 -174.086,-63.9499 25.3442 -174.086,
                  -5.94994 25.5002 -172.969,-63.9499 25.5002 -172.969,-5.94994 32.5001 -170.469,-63.9499 32.5001 -170.469,
                  -13.4499 96.9999 -173.5,-56.4499 96.9999 -173.5,-13.4499 97.0004 -173.5,-56.4499 97.0004 -173.5,-63.9499 98.9999 -173.5,
                  -63.9499 97.0004 -173.5,-5.94994 98.9999 -173.5,-5.94994 97.0004 -173.5,-56.4499 102.25 -170.469,-13.4499 102.25 -170.469,
                  -56.4499 107.5 -170.469,-13.4499 107.5 -170.469,-5.94994 107.5 -170.469,-5.94994 114.5 -172.969,-63.9499 114.5 -172.969,
                  -63.9499 107.5 -170.469,-5.94994 114.656 -174.086,-63.9499 114.656 -174.086,-5.94994 107.327 -171.469,
                  -63.9499 107.327 -171.469,-5.94994 102.518 -171.469,-63.9499 102.518 -171.469,-56.4499 43 -173.5,-63.9499 43 -173.5,
                  -63.9499 53 -164.657,-63.9499 60.0044 -173.5,-63.9499 32.5001 -152.327,-63.9499 53 -159.039,-63.9499 59.2159 -144.384,
                  -63.9499 62.5001 -153.554,-63.9499 64.4443 -151.515,-63.9499 64.9775 -148.749,-63.9499 63.9305 -146.133,
                  -63.9499 61.6356 -144.499,-63.9499 58.4073 -163.722,-63.9499 62.7022 -172.708,-63.9499 64.5435 -170.583,
                  -63.9499 64.9436 -167.8,-63.9499 63.7756 -165.242,-63.9499 61.4102 -163.722,-5.94994 43 -173.5,-13.4499 43 -173.5,
                  -13.4499 60.0044 -173.5,-13.4499 53 -164.657,-13.4499 58.4073 -163.722,-13.4499 64.5435 -170.583,-13.4499 64.9436 -167.8,
                  -13.4499 63.7756 -165.242,-13.4499 61.4102 -163.722,-13.4499 33.5 -163.5,-13.4499 53 -163.5,-13.4499 32.5001 -152.327,
                  -13.4499 33.5 -152.03,-13.4499 62.7022 -172.708,-56.4499 97 -173.5,-56.4499 79.9956 -173.5,-56.4499 87 -164.657,
                  -56.4499 75.4565 -170.583,-56.4499 75.0564 -167.8,-56.4499 77.2978 -172.708,-56.4499 106.5 -163.5,-56.4499 87 -163.5,
                  -56.4499 107.5 -152.327,-56.4499 106.5 -152.03,-56.4499 81.5927 -163.722,-56.4499 76.2244 -165.242,-56.4499 78.5898 -163.722,
                  -63.9499 107.5 -152.327,-5.94994 107.5 -152.327,-13.4499 107.5 -152.327,-13.4499 106.5 -163.5,-13.4499 106.5 -152.03,
                  -13.4499 87 -164.657,-13.4499 79.9956 -173.5,-13.4499 97 -173.5,-13.4499 77.2978 -172.708,-13.4499 75.4565 -170.583,
                  -13.4499 81.5927 -163.722,-13.4499 75.0564 -167.8,-13.4499 76.2244 -165.242,-13.4499 78.5898 -163.722,-13.4499 87 -163.5,
                  -63.9499 87 -164.657,-63.9499 87 -159.039,-56.4499 87 -159.039,-56.4499 77.4999 -153.554,-63.9499 77.4999 -153.554,
                  -56.4499 75.5557 -151.515,-63.9499 75.5557 -151.515,-56.4499 75.0225 -148.749,-63.9499 75.0225 -148.749,
                  -56.4499 76.0695 -146.133,-63.9499 76.0695 -146.133,-56.4499 78.3644 -144.499,-63.9499 78.3644 -144.499,
                  -56.4499 80.7841 -144.384,-63.9499 80.7841 -144.384,-63.9499 97 -173.5,-63.9499 79.9956 -173.5,-63.9499 77.2978 -172.708,
                  -63.9499 75.4565 -170.583,-63.9499 75.0564 -167.8,-63.9499 76.2244 -165.242,-63.9499 78.5898 -163.722,
                  -63.9499 81.5927 -163.722,-56.4499 60.0044 -173.5,-56.4499 53 -164.657,-56.4499 64.5435 -170.583,-56.4499 64.9436 -167.8,
                  -56.4499 58.4073 -163.722,-56.4499 63.7756 -165.242,-56.4499 61.4102 -163.722,-56.4499 62.7022 -172.708,-56.4499 53 -163.5,
                  -56.4499 33.5 -163.5,-56.4499 33.5 -152.03,-56.4499 32.5001 -152.327,-56.4499 59.2159 -144.384,-56.4499 61.6356 -144.499,
                  -56.4499 63.9305 -146.133,-56.4499 64.9775 -148.749,-56.4499 64.4443 -151.515,-56.4499 62.5001 -153.554,-56.4499 53 -159.039,
                  -56.4499 106.5 -135,-56.4499 33.5 -135,-5.94994 87 -164.657,-5.94994 87 -159.039,-13.4499 87 -159.039,
                  -5.94994 77.4999 -153.554,-13.4499 77.4999 -153.554,-5.94994 75.5557 -151.515,-13.4499 75.5557 -151.515,
                  -5.94994 75.0225 -148.749,-13.4499 75.0225 -148.749,-5.94994 76.0695 -146.133,-13.4499 76.0695 -146.133,
                  -5.94994 78.3644 -144.499,-13.4499 78.3644 -144.499,-5.94994 80.7841 -144.384,-13.4499 80.7841 -144.384,-5.94994 97 -173.5,
                  -5.94994 79.9956 -173.5,-5.94994 77.2978 -172.708,-5.94994 75.4565 -170.583,-5.94994 75.0564 -167.8,-5.94994 76.2244 -165.242,
                  -5.94994 78.5898 -163.722,-5.94994 81.5927 -163.722,-5.94994 60.0044 -173.5,-5.94994 32.5001 -152.327,
                  -5.94994 59.2159 -144.384,-13.4499 59.2159 -144.384,-5.94994 61.6356 -144.499,-13.4499 61.6356 -144.499,
                  -5.94994 63.9305 -146.133,-13.4499 63.9305 -146.133,-5.94994 64.9775 -148.749,-13.4499 64.9775 -148.749,
                  -5.94994 64.4443 -151.515,-13.4499 64.4443 -151.515,-5.94994 62.5001 -153.554,-13.4499 62.5001 -153.554,-5.94994 53 -159.039,
                  -13.4499 53 -159.039,-5.94994 53 -164.657,-5.94994 58.4073 -163.722,-5.94994 61.4102 -163.722,-5.94994 63.7756 -165.242,
                  -5.94994 64.9436 -167.8,-5.94994 64.5435 -170.583,-5.94994 62.7022 -172.708,13.5501 126.5 -152.03,13.5501 126.5 -163.5,
                  13.5501 127.5 -152.327,13.5501 127.5 -170.469,13.5501 122.25 -170.469,13.5501 107 -164.657,13.5501 117 -173.5,
                  13.5501 99.9956 -173.5,13.5501 107 -163.5,13.5501 101.593 -163.722,13.5501 95.4565 -170.583,13.5501 97.2978 -172.708,
                  13.5501 98.5898 -163.722,13.5501 96.2244 -165.242,13.5501 95.0564 -167.8,6.05009 127.5 -152.327,6.05009 127.5 -170.469,
                  6.05009 122.25 -170.469,6.05009 117 -173.5,6.05009 99.9956 -173.5,6.05009 97.2978 -172.708,6.05009 95.4565 -170.583,
                  6.05009 95.0564 -167.8,6.05009 96.2244 -165.242,6.05009 98.5898 -163.722,6.05009 101.593 -163.722,6.05009 107 -164.657,
                  6.05009 107 -159.039,13.5501 107 -159.039,13.5501 97.5 -153.554,6.05009 97.5 -153.554,13.5501 95.5558 -151.515,
                  6.05009 95.5558 -151.515,13.5501 95.0227 -148.748,6.05009 95.0227 -148.748,13.5501 96.0698 -146.133,6.05009 96.0698 -146.133,
                  13.5501 98.3647 -144.499,6.05009 98.3647 -144.499,13.5501 100.784 -144.383,6.05009 100.784 -144.383,13.5501 53 -163.5,
                  13.5501 33.5 -163.5,13.5501 53 -164.657,13.5501 37.75 -170.469,13.5501 43 -173.5,13.5501 60.0044 -173.5,
                  13.5501 58.4073 -163.722,13.5501 64.5435 -170.583,13.5501 64.9436 -167.8,13.5501 63.7756 -165.242,13.5501 61.4102 -163.722,
                  13.5501 33.5 -152.03,13.5501 32.5 -152.327,13.5501 32.5 -170.469,13.5501 62.7022 -172.708,13.5501 53 -159.039,
                  6.05009 53 -159.039,6.05009 53 -164.657,6.05009 58.4073 -163.722,6.05009 61.4102 -163.722,6.05009 63.7756 -165.242,
                  6.05009 64.9436 -167.8,6.05009 64.5435 -170.583,6.05009 62.7022 -172.708,6.05009 60.0044 -173.5,6.05009 43 -173.5,
                  6.05009 37.75 -170.469,6.05009 32.5 -170.469,6.05009 32.5 -152.327,6.05009 57.5 -144.894,13.5501 57.5 -144.894,
                  13.5501 60.2379 -144.229,6.05009 60.2379 -144.229,13.5501 62.9003 -145.151,6.05009 62.9003 -145.151,13.5501 64.6418 -147.365,
                  6.05009 64.6418 -147.365,13.5501 64.9096 -150.17,6.05009 64.9096 -150.17,13.5501 63.447 -153.007,6.05009 63.447 -153.007,
                  13.5501 126.5 -135,13.5501 33.5 -135,56.5501 53 -159.039,64.0501 53 -159.039,56.5501 53 -163.5,64.0501 53 -164.657,
                  56.5501 53 -164.657,64.0501 58.4073 -163.722,56.5501 58.4073 -163.722,64.0501 61.4102 -163.722,56.5501 61.4102 -163.722,
                  64.0501 63.7756 -165.242,56.5501 63.7756 -165.242,64.0501 64.9436 -167.8,56.5501 64.9436 -167.8,64.0501 64.5435 -170.583,
                  56.5501 64.5435 -170.583,64.0501 62.7022 -172.708,56.5501 62.7022 -172.708,64.0501 60.0044 -173.5,56.5501 60.0044 -173.5,
                  64.0501 43 -173.5,56.5501 43 -173.5,64.0501 37.75 -170.469,56.5501 37.75 -170.469,64.0501 32.5 -170.469,56.5501 32.5 -170.469,
                  64.0501 32.5 -152.327,56.5501 32.5 -152.327,56.5501 33.5 -152.03,64.0501 57.5 -144.894,56.5501 57.5 -144.894,
                  64.0501 60.2379 -144.229,56.5501 60.2379 -144.229,64.0501 62.9003 -145.151,56.5501 62.9003 -145.151,64.0501 64.6418 -147.365,
                  56.5501 64.6418 -147.365,64.0501 64.9096 -150.17,56.5501 64.9096 -150.17,64.0501 63.447 -153.007,56.5501 63.447 -153.007,
                  56.5501 33.5 -163.5,64.0501 127.5 -170.469,56.5501 127.5 -170.469,64.0501 127.5 -152.327,56.5501 127.5 -152.327,
                  64.0501 122.25 -170.469,56.5501 122.25 -170.469,64.0501 117 -173.5,56.5501 117 -173.5,64.0501 99.9956 -173.5,
                  56.5501 99.9956 -173.5,64.0501 97.2978 -172.708,56.5501 97.2978 -172.708,64.0501 95.4565 -170.583,56.5501 95.4565 -170.583,
                  64.0501 95.0564 -167.8,56.5501 95.0564 -167.8,64.0501 96.2244 -165.242,56.5501 96.2244 -165.242,64.0501 98.5898 -163.722,
                  56.5501 98.5898 -163.722,64.0501 101.593 -163.722,56.5501 101.593 -163.722,64.0501 107 -164.657,56.5501 107 -164.657,
                  56.5501 107 -163.5,64.0501 107 -159.039,56.5501 107 -159.039,64.0501 97.5 -153.554,56.5501 97.5 -153.554,
                  64.0501 95.5558 -151.515,56.5501 95.5558 -151.515,64.0501 95.0227 -148.748,56.5501 95.0227 -148.748,64.0501 96.0698 -146.133,
                  56.5501 96.0698 -146.133,64.0501 98.3647 -144.499,56.5501 98.3647 -144.499,64.0501 100.784 -144.383,56.5501 100.784 -144.383,
                  56.5501 126.5 -152.03,56.5501 126.5 -163.5,56.5501 126.5 -135,56.5501 33.5 -135,52.5501 121 -163.5,52.5501 121 -135,
                  17.5501 121 -163.5,17.5501 121 -135,52.5501 39 -163.5,52.5501 39 -135,17.5501 39 -163.5,17.5501 39 -135,-13.4499 106.5 -135,
                  -13.4499 33.5 -135,-52.4499 100 -163.5,-17.4499 100 -163.5,-52.4499 100 -135,-17.4499 100 -135,-17.4499 39 -163.5,
                  -17.4499 39 -135,-52.4499 39 -163.5,-52.4499 39 -135,-69.9 164 -135,-69.9 164 -130,70 164 -135,70 164 -130,-69.9 22 -135,
                  -69.9 22 -130,70 22 -135,70 22 -130,25.0501 18.5 -167.969,45.0501 18.5 -167.969,25.0501 23.5 -171.541,45.0501 23.5 -171.541,
                  25.0501 11.5 -172.969,45.0501 11.5 -172.969,25.0501 12.0813 -173.783,45.0501 12.0813 -173.783,25.0501 18.5 -169.198,
                  45.0501 18.5 -169.198,25.0501 23.5 -172.769,45.0501 23.5 -172.769,6.05009 23.5 -172.769,6.05009 23.5 -171.541,
                  64.0501 23.5 -171.541,64.0501 23.5 -172.769,64.0501 41 -173.5,6.05009 41 -173.5,64.0501 37.4821 -171.469,
                  6.05009 37.4821 -171.469,64.0501 32.673 -171.469,6.05009 32.673 -171.469,64.0501 25.344 -174.087,6.05009 25.344 -174.087,
                  64.0501 25.5 -172.969,6.05009 25.5 -172.969,25.0501 136.5 -172.769,25.0501 141.5 -169.198,45.0501 136.5 -172.769,
                  45.0501 141.5 -169.198,25.0501 147.919 -173.783,45.0501 147.919 -173.783,25.0501 148.5 -172.969,45.0501 148.5 -172.969,
                  25.0501 141.5 -167.969,45.0501 141.5 -167.969,25.0501 136.5 -171.541,45.0501 136.5 -171.541,6.05009 136.5 -171.541,
                  6.05009 136.5 -172.769,64.0501 136.5 -171.541,64.0501 136.5 -172.769,64.0501 134.656 -174.087,6.05009 134.656 -174.087,
                  64.0501 127.327 -171.469,6.05009 127.327 -171.469,64.0501 122.518 -171.469,6.05009 122.518 -171.469,64.0501 119 -173.5,
                  6.05009 119 -173.5,64.0501 134.5 -172.969,6.05009 134.5 -172.969]
                }
                coordIndex [
                  0, 1, 2, -1,
                  2, 1, 3, -1,
                  4, 5, 0, -1,
                  0, 5, 1, -1,
                  4, 6, 5, -1,
                  5, 6, 7, -1,
                  8, 9, 6, -1,
                  6, 9, 7, -1,
                  8, 10, 9, -1,
                  9, 10, 11, -1,
                  11, 3, 9, -1,
                  9, 3, 1, -1,
                  5, 9, 1, -1,
                  5, 7, 9, -1,
                  4, 0, 8, -1,
                  6, 4, 8, -1,
                  10, 8, 2, -1,
                  2, 8, 0, -1,
                  12, 13, 14, -1,
                  14, 13, 15, -1,
                  12, 16, 13, -1,
                  13, 16, 17, -1,
                  16, 18, 17, -1,
                  17, 18, 19, -1,
                  18, 20, 19, -1,
                  19, 20, 21, -1,
                  20, 22, 21, -1,
                  21, 22, 23, -1,
                  19, 21, 13, -1,
                  17, 19, 13, -1,
                  15, 13, 23, -1,
                  23, 13, 21, -1,
                  14, 22, 12, -1,
                  12, 22, 20, -1,
                  18, 12, 20, -1,
                  18, 16, 12, -1,
                  2, 24, 10, -1,
                  10, 24, 25, -1,
                  3, 11, 26, -1,
                  26, 11, 27, -1,
                  14, 28, 22, -1,
                  22, 28, 29, -1,
                  15, 23, 30, -1,
                  30, 23, 31, -1,
                  32, 33, 34, -1,
                  34, 33, 35, -1,
                  36, 35, 37, -1,
                  36, 34, 35, -1,
                  38, 39, 33, -1,
                  33, 39, 35, -1,
                  40, 41, 38, -1,
                  38, 41, 39, -1,
                  42, 43, 40, -1,
                  40, 43, 41, -1,
                  44, 45, 36, -1,
                  36, 45, 34, -1,
                  46, 47, 44, -1,
                  44, 47, 45, -1,
                  48, 49, 46, -1,
                  46, 49, 47, -1,
                  27, 11, 48, -1,
                  48, 11, 49, -1,
                  49, 11, 10, -1,
                  25, 49, 10, -1,
                  26, 50, 3, -1,
                  3, 50, 51, -1,
                  2, 51, 24, -1,
                  2, 3, 51, -1,
                  52, 43, 50, -1,
                  50, 43, 42, -1,
                  51, 42, 53, -1,
                  51, 50, 42, -1,
                  54, 55, 56, -1,
                  56, 55, 57, -1,
                  58, 57, 59, -1,
                  58, 56, 57, -1,
                  58, 60, 56, -1,
                  56, 60, 61, -1,
                  55, 54, 62, -1,
                  62, 54, 63, -1,
                  64, 62, 65, -1,
                  65, 62, 63, -1,
                  66, 67, 65, -1,
                  65, 67, 64, -1,
                  64, 67, 68, -1,
                  69, 64, 68, -1,
                  31, 23, 67, -1,
                  67, 23, 68, -1,
                  68, 23, 22, -1,
                  29, 68, 22, -1,
                  30, 70, 15, -1,
                  15, 70, 71, -1,
                  14, 71, 28, -1,
                  14, 15, 71, -1,
                  72, 73, 70, -1,
                  70, 73, 71, -1,
                  74, 75, 72, -1,
                  72, 75, 73, -1,
                  74, 60, 75, -1,
                  75, 60, 58, -1,
                  33, 32, 76, -1,
                  76, 32, 77, -1,
                  34, 45, 32, -1,
                  32, 45, 78, -1,
                  77, 78, 79, -1,
                  77, 32, 78, -1,
                  47, 53, 45, -1,
                  47, 51, 53, -1,
                  47, 49, 51, -1,
                  51, 49, 25, -1,
                  24, 51, 25, -1,
                  53, 80, 45, -1,
                  45, 80, 81, -1,
                  78, 45, 81, -1,
                  80, 82, 81, -1,
                  81, 82, 83, -1,
                  83, 82, 84, -1,
                  84, 82, 85, -1,
                  85, 82, 86, -1,
                  86, 82, 87, -1,
                  78, 88, 79, -1,
                  79, 88, 89, -1,
                  89, 88, 90, -1,
                  90, 88, 91, -1,
                  91, 88, 92, -1,
                  92, 88, 93, -1,
                  37, 35, 94, -1,
                  94, 35, 95, -1,
                  35, 39, 95, -1,
                  95, 39, 96, -1,
                  96, 39, 97, -1,
                  98, 96, 97, -1,
                  98, 99, 96, -1,
                  98, 100, 99, -1,
                  98, 101, 100, -1,
                  98, 102, 101, -1,
                  39, 41, 97, -1,
                  97, 41, 103, -1,
                  104, 97, 103, -1,
                  41, 43, 103, -1,
                  103, 43, 105, -1,
                  106, 103, 105, -1,
                  99, 107, 96, -1,
                  57, 55, 108, -1,
                  108, 55, 109, -1,
                  109, 55, 110, -1,
                  111, 110, 112, -1,
                  111, 109, 110, -1,
                  111, 113, 109, -1,
                  55, 62, 110, -1,
                  110, 62, 114, -1,
                  115, 110, 114, -1,
                  62, 64, 114, -1,
                  114, 64, 116, -1,
                  117, 114, 116, -1,
                  110, 118, 112, -1,
                  112, 118, 119, -1,
                  119, 118, 120, -1,
                  64, 69, 116, -1,
                  116, 69, 121, -1,
                  66, 65, 122, -1,
                  122, 65, 123, -1,
                  123, 65, 124, -1,
                  125, 123, 124, -1,
                  54, 126, 63, -1,
                  54, 127, 126, -1,
                  54, 128, 127, -1,
                  54, 56, 128, -1,
                  129, 130, 127, -1,
                  127, 130, 131, -1,
                  126, 127, 131, -1,
                  130, 132, 131, -1,
                  131, 132, 133, -1,
                  134, 131, 133, -1,
                  135, 124, 126, -1,
                  126, 124, 63, -1,
                  63, 124, 65, -1,
                  110, 115, 136, -1,
                  136, 115, 137, -1,
                  137, 115, 138, -1,
                  139, 140, 138, -1,
                  138, 140, 137, -1,
                  139, 141, 140, -1,
                  140, 141, 142, -1,
                  141, 143, 142, -1,
                  142, 143, 144, -1,
                  143, 145, 144, -1,
                  144, 145, 146, -1,
                  147, 148, 145, -1,
                  145, 148, 146, -1,
                  149, 150, 147, -1,
                  147, 150, 148, -1,
                  149, 117, 150, -1,
                  150, 117, 121, -1,
                  121, 117, 116, -1,
                  59, 57, 151, -1,
                  151, 57, 108, -1,
                  109, 152, 108, -1,
                  108, 152, 151, -1,
                  113, 153, 109, -1,
                  109, 153, 152, -1,
                  113, 111, 153, -1,
                  153, 111, 154, -1,
                  111, 112, 154, -1,
                  154, 112, 155, -1,
                  112, 119, 155, -1,
                  155, 119, 156, -1,
                  119, 120, 156, -1,
                  156, 120, 157, -1,
                  118, 158, 120, -1,
                  120, 158, 157, -1,
                  110, 136, 118, -1,
                  118, 136, 158, -1,
                  151, 136, 59, -1,
                  151, 152, 136, -1,
                  136, 152, 158, -1,
                  158, 152, 153, -1,
                  154, 158, 153, -1,
                  154, 155, 158, -1,
                  158, 155, 156, -1,
                  157, 158, 156, -1,
                  59, 136, 75, -1,
                  58, 59, 75, -1,
                  140, 150, 137, -1,
                  140, 142, 150, -1,
                  150, 142, 144, -1,
                  146, 150, 144, -1,
                  146, 148, 150, -1,
                  150, 121, 137, -1,
                  137, 121, 75, -1,
                  136, 137, 75, -1,
                  121, 69, 75, -1,
                  75, 69, 73, -1,
                  73, 69, 68, -1,
                  71, 68, 28, -1,
                  71, 73, 68, -1,
                  68, 29, 28, -1,
                  33, 76, 38, -1,
                  38, 76, 159, -1,
                  160, 159, 161, -1,
                  162, 160, 161, -1,
                  162, 163, 160, -1,
                  162, 164, 163, -1,
                  163, 164, 165, -1,
                  159, 166, 161, -1,
                  167, 168, 160, -1,
                  160, 168, 40, -1,
                  38, 160, 40, -1,
                  38, 159, 160, -1,
                  169, 170, 168, -1,
                  168, 170, 42, -1,
                  40, 168, 42, -1,
                  76, 77, 159, -1,
                  159, 77, 79, -1,
                  42, 170, 53, -1,
                  53, 170, 80, -1,
                  170, 169, 80, -1,
                  80, 169, 82, -1,
                  82, 169, 171, -1,
                  172, 87, 171, -1,
                  171, 87, 82, -1,
                  172, 173, 87, -1,
                  87, 173, 86, -1,
                  174, 85, 173, -1,
                  173, 85, 86, -1,
                  175, 84, 174, -1,
                  174, 84, 85, -1,
                  176, 83, 175, -1,
                  175, 83, 84, -1,
                  176, 177, 83, -1,
                  83, 177, 81, -1,
                  177, 167, 81, -1,
                  81, 167, 78, -1,
                  78, 167, 160, -1,
                  163, 88, 160, -1,
                  160, 88, 78, -1,
                  165, 93, 163, -1,
                  163, 93, 88, -1,
                  164, 92, 165, -1,
                  165, 92, 93, -1,
                  162, 91, 164, -1,
                  164, 91, 92, -1,
                  161, 90, 162, -1,
                  162, 90, 91, -1,
                  166, 89, 161, -1,
                  161, 89, 90, -1,
                  159, 79, 166, -1,
                  166, 79, 89, -1,
                  117, 149, 178, -1,
                  178, 149, 147, -1,
                  179, 147, 172, -1,
                  171, 179, 172, -1,
                  171, 169, 179, -1,
                  147, 145, 172, -1,
                  172, 145, 173, -1,
                  173, 145, 143, -1,
                  174, 143, 141, -1,
                  175, 141, 139, -1,
                  176, 139, 138, -1,
                  177, 138, 115, -1,
                  167, 177, 115, -1,
                  173, 143, 174, -1,
                  174, 141, 175, -1,
                  175, 139, 176, -1,
                  176, 138, 177, -1,
                  179, 178, 147, -1,
                  126, 180, 135, -1,
                  135, 180, 181, -1,
                  182, 135, 181, -1,
                  183, 184, 181, -1,
                  181, 184, 182, -1,
                  183, 185, 184, -1,
                  184, 185, 186, -1,
                  185, 187, 186, -1,
                  186, 187, 188, -1,
                  187, 189, 188, -1,
                  188, 189, 190, -1,
                  189, 191, 190, -1,
                  190, 191, 192, -1,
                  193, 194, 191, -1,
                  191, 194, 192, -1,
                  194, 193, 125, -1,
                  125, 193, 122, -1,
                  123, 125, 122, -1,
                  61, 195, 56, -1,
                  56, 195, 128, -1,
                  196, 127, 195, -1,
                  195, 127, 128, -1,
                  197, 129, 196, -1,
                  196, 129, 127, -1,
                  197, 198, 129, -1,
                  129, 198, 130, -1,
                  198, 199, 130, -1,
                  130, 199, 132, -1,
                  199, 200, 132, -1,
                  132, 200, 133, -1,
                  200, 201, 133, -1,
                  133, 201, 134, -1,
                  202, 131, 201, -1,
                  201, 131, 134, -1,
                  180, 126, 202, -1,
                  202, 126, 131, -1,
                  122, 74, 66, -1,
                  122, 181, 74, -1,
                  122, 193, 181, -1,
                  181, 193, 183, -1,
                  183, 193, 185, -1,
                  185, 193, 187, -1,
                  187, 193, 189, -1,
                  189, 193, 191, -1,
                  181, 180, 74, -1,
                  74, 180, 61, -1,
                  60, 74, 61, -1,
                  202, 199, 180, -1,
                  202, 200, 199, -1,
                  202, 201, 200, -1,
                  199, 198, 180, -1,
                  180, 198, 196, -1,
                  195, 180, 196, -1,
                  195, 61, 180, -1,
                  198, 197, 196, -1,
                  74, 72, 66, -1,
                  66, 72, 67, -1,
                  67, 72, 70, -1,
                  30, 67, 70, -1,
                  30, 31, 67, -1,
                  94, 95, 203, -1,
                  203, 95, 96, -1,
                  52, 204, 43, -1,
                  43, 204, 105, -1,
                  105, 204, 106, -1,
                  106, 204, 205, -1,
                  206, 106, 205, -1,
                  207, 208, 205, -1,
                  205, 208, 206, -1,
                  209, 210, 207, -1,
                  207, 210, 208, -1,
                  211, 212, 209, -1,
                  209, 212, 210, -1,
                  213, 214, 211, -1,
                  211, 214, 212, -1,
                  215, 216, 213, -1,
                  213, 216, 214, -1,
                  217, 218, 215, -1,
                  215, 218, 216, -1,
                  218, 217, 104, -1,
                  104, 217, 219, -1,
                  97, 104, 219, -1,
                  219, 220, 97, -1,
                  97, 220, 98, -1,
                  221, 102, 220, -1,
                  220, 102, 98, -1,
                  222, 101, 221, -1,
                  221, 101, 102, -1,
                  223, 100, 222, -1,
                  222, 100, 101, -1,
                  224, 99, 223, -1,
                  223, 99, 100, -1,
                  225, 107, 224, -1,
                  224, 107, 99, -1,
                  203, 96, 225, -1,
                  225, 96, 107, -1,
                  94, 219, 37, -1,
                  94, 203, 219, -1,
                  219, 203, 224, -1,
                  223, 219, 224, -1,
                  223, 220, 219, -1,
                  223, 222, 220, -1,
                  220, 222, 221, -1,
                  203, 225, 224, -1,
                  37, 219, 44, -1,
                  36, 37, 44, -1,
                  215, 205, 217, -1,
                  215, 213, 205, -1,
                  205, 213, 211, -1,
                  209, 205, 211, -1,
                  209, 207, 205, -1,
                  205, 204, 217, -1,
                  217, 204, 44, -1,
                  219, 217, 44, -1,
                  204, 52, 44, -1,
                  44, 52, 46, -1,
                  46, 52, 50, -1,
                  48, 50, 27, -1,
                  48, 46, 50, -1,
                  50, 26, 27, -1,
                  226, 227, 228, -1,
                  228, 227, 229, -1,
                  229, 227, 230, -1,
                  230, 227, 231, -1,
                  232, 231, 233, -1,
                  232, 230, 231, -1,
                  227, 234, 231, -1,
                  231, 235, 233, -1,
                  233, 235, 236, -1,
                  237, 233, 236, -1,
                  238, 239, 235, -1,
                  235, 239, 240, -1,
                  236, 235, 240, -1,
                  228, 229, 241, -1,
                  241, 229, 242, -1,
                  230, 243, 229, -1,
                  229, 243, 242, -1,
                  232, 244, 230, -1,
                  230, 244, 243, -1,
                  233, 245, 232, -1,
                  232, 245, 244, -1,
                  233, 237, 245, -1,
                  245, 237, 246, -1,
                  237, 236, 246, -1,
                  246, 236, 247, -1,
                  236, 240, 247, -1,
                  247, 240, 248, -1,
                  240, 239, 248, -1,
                  248, 239, 249, -1,
                  239, 238, 249, -1,
                  249, 238, 250, -1,
                  235, 251, 238, -1,
                  238, 251, 250, -1,
                  231, 252, 235, -1,
                  235, 252, 251, -1,
                  231, 234, 252, -1,
                  252, 234, 253, -1,
                  253, 234, 254, -1,
                  255, 256, 254, -1,
                  254, 256, 253, -1,
                  255, 257, 256, -1,
                  256, 257, 258, -1,
                  257, 259, 258, -1,
                  258, 259, 260, -1,
                  259, 261, 260, -1,
                  260, 261, 262, -1,
                  261, 263, 262, -1,
                  262, 263, 264, -1,
                  265, 266, 263, -1,
                  263, 266, 264, -1,
                  265, 226, 266, -1,
                  266, 226, 241, -1,
                  241, 226, 228, -1,
                  241, 253, 266, -1,
                  241, 243, 253, -1,
                  241, 242, 243, -1,
                  253, 243, 252, -1,
                  252, 243, 244, -1,
                  245, 252, 244, -1,
                  245, 251, 252, -1,
                  245, 246, 251, -1,
                  251, 246, 247, -1,
                  248, 251, 247, -1,
                  248, 249, 251, -1,
                  251, 249, 250, -1,
                  253, 256, 266, -1,
                  266, 256, 258, -1,
                  260, 266, 258, -1,
                  260, 262, 266, -1,
                  266, 262, 264, -1,
                  267, 268, 269, -1,
                  269, 268, 270, -1,
                  271, 269, 270, -1,
                  271, 272, 269, -1,
                  269, 272, 273, -1,
                  273, 272, 274, -1,
                  275, 273, 274, -1,
                  275, 276, 273, -1,
                  273, 276, 277, -1,
                  278, 279, 268, -1,
                  268, 279, 280, -1,
                  270, 268, 280, -1,
                  272, 281, 274, -1,
                  282, 267, 283, -1,
                  283, 267, 284, -1,
                  284, 267, 269, -1,
                  269, 273, 284, -1,
                  284, 273, 285, -1,
                  277, 286, 273, -1,
                  273, 286, 285, -1,
                  276, 287, 277, -1,
                  277, 287, 286, -1,
                  275, 288, 276, -1,
                  276, 288, 287, -1,
                  274, 289, 275, -1,
                  275, 289, 288, -1,
                  281, 290, 274, -1,
                  274, 290, 289, -1,
                  272, 291, 281, -1,
                  281, 291, 290, -1,
                  271, 292, 272, -1,
                  272, 292, 291, -1,
                  271, 270, 292, -1,
                  292, 270, 293, -1,
                  280, 294, 270, -1,
                  270, 294, 293, -1,
                  280, 279, 294, -1,
                  294, 279, 295, -1,
                  279, 278, 295, -1,
                  295, 278, 296, -1,
                  296, 278, 297, -1,
                  298, 299, 297, -1,
                  297, 299, 296, -1,
                  300, 301, 298, -1,
                  298, 301, 299, -1,
                  302, 303, 300, -1,
                  300, 303, 301, -1,
                  304, 305, 302, -1,
                  302, 305, 303, -1,
                  306, 307, 304, -1,
                  304, 307, 305, -1,
                  282, 283, 306, -1,
                  306, 283, 307, -1,
                  305, 307, 296, -1,
                  303, 296, 301, -1,
                  303, 305, 296, -1,
                  284, 293, 283, -1,
                  284, 292, 293, -1,
                  284, 291, 292, -1,
                  284, 285, 291, -1,
                  291, 285, 286, -1,
                  287, 291, 286, -1,
                  287, 288, 291, -1,
                  291, 288, 289, -1,
                  290, 291, 289, -1,
                  294, 295, 293, -1,
                  293, 295, 283, -1,
                  283, 295, 296, -1,
                  307, 283, 296, -1,
                  296, 299, 301, -1,
                  226, 265, 308, -1,
                  308, 265, 263, -1,
                  298, 263, 300, -1,
                  298, 308, 263, -1,
                  298, 309, 308, -1,
                  298, 297, 309, -1,
                  309, 297, 278, -1,
                  263, 261, 300, -1,
                  300, 261, 302, -1,
                  302, 261, 259, -1,
                  304, 259, 257, -1,
                  306, 257, 255, -1,
                  282, 255, 254, -1,
                  267, 254, 234, -1,
                  267, 282, 254, -1,
                  302, 259, 304, -1,
                  304, 257, 306, -1,
                  306, 255, 282, -1,
                  310, 311, 312, -1,
                  312, 311, 313, -1,
                  314, 312, 313, -1,
                  315, 316, 313, -1,
                  313, 316, 314, -1,
                  317, 318, 315, -1,
                  315, 318, 316, -1,
                  319, 320, 317, -1,
                  317, 320, 318, -1,
                  321, 322, 319, -1,
                  319, 322, 320, -1,
                  323, 324, 321, -1,
                  321, 324, 322, -1,
                  325, 326, 323, -1,
                  323, 326, 324, -1,
                  327, 328, 325, -1,
                  325, 328, 326, -1,
                  329, 330, 327, -1,
                  327, 330, 328, -1,
                  329, 331, 330, -1,
                  330, 331, 332, -1,
                  333, 334, 331, -1,
                  331, 334, 332, -1,
                  333, 335, 334, -1,
                  334, 335, 336, -1,
                  336, 335, 337, -1,
                  337, 335, 338, -1,
                  339, 337, 338, -1,
                  340, 341, 338, -1,
                  338, 341, 339, -1,
                  340, 342, 341, -1,
                  341, 342, 343, -1,
                  344, 345, 342, -1,
                  342, 345, 343, -1,
                  346, 347, 344, -1,
                  344, 347, 345, -1,
                  348, 349, 346, -1,
                  346, 349, 347, -1,
                  311, 310, 348, -1,
                  348, 310, 349, -1,
                  312, 314, 350, -1,
                  350, 314, 332, -1,
                  334, 350, 332, -1,
                  334, 336, 350, -1,
                  350, 336, 337, -1,
                  316, 328, 314, -1,
                  316, 324, 328, -1,
                  316, 322, 324, -1,
                  316, 320, 322, -1,
                  316, 318, 320, -1,
                  324, 326, 328, -1,
                  328, 330, 314, -1,
                  314, 330, 332, -1,
                  311, 331, 313, -1,
                  311, 335, 331, -1,
                  311, 338, 335, -1,
                  311, 348, 338, -1,
                  338, 348, 346, -1,
                  344, 338, 346, -1,
                  344, 342, 338, -1,
                  338, 342, 340, -1,
                  335, 333, 331, -1,
                  331, 329, 313, -1,
                  313, 329, 327, -1,
                  315, 327, 317, -1,
                  315, 313, 327, -1,
                  325, 323, 327, -1,
                  327, 323, 321, -1,
                  319, 327, 321, -1,
                  319, 317, 327, -1,
                  351, 352, 353, -1,
                  353, 352, 354, -1,
                  355, 356, 351, -1,
                  351, 356, 352, -1,
                  357, 358, 355, -1,
                  355, 358, 356, -1,
                  359, 360, 357, -1,
                  357, 360, 358, -1,
                  361, 362, 359, -1,
                  359, 362, 360, -1,
                  361, 363, 362, -1,
                  362, 363, 364, -1,
                  363, 365, 364, -1,
                  364, 365, 366, -1,
                  365, 367, 366, -1,
                  366, 367, 368, -1,
                  367, 369, 368, -1,
                  368, 369, 370, -1,
                  371, 372, 369, -1,
                  369, 372, 370, -1,
                  373, 374, 371, -1,
                  371, 374, 372, -1,
                  374, 373, 375, -1,
                  375, 373, 376, -1,
                  377, 375, 376, -1,
                  378, 379, 376, -1,
                  376, 379, 377, -1,
                  378, 380, 379, -1,
                  379, 380, 381, -1,
                  380, 382, 381, -1,
                  381, 382, 383, -1,
                  382, 384, 383, -1,
                  383, 384, 385, -1,
                  386, 387, 384, -1,
                  384, 387, 385, -1,
                  388, 389, 386, -1,
                  386, 389, 387, -1,
                  389, 388, 390, -1,
                  390, 388, 353, -1,
                  354, 390, 353, -1,
                  390, 354, 391, -1,
                  391, 354, 352, -1,
                  356, 391, 352, -1,
                  356, 374, 391, -1,
                  356, 358, 374, -1,
                  374, 358, 360, -1,
                  372, 360, 364, -1,
                  366, 372, 364, -1,
                  366, 368, 372, -1,
                  372, 368, 370, -1,
                  360, 362, 364, -1,
                  372, 374, 360, -1,
                  374, 375, 391, -1,
                  351, 353, 355, -1,
                  355, 353, 376, -1,
                  373, 355, 376, -1,
                  373, 357, 355, -1,
                  373, 359, 357, -1,
                  373, 371, 359, -1,
                  359, 371, 361, -1,
                  361, 371, 363, -1,
                  363, 371, 365, -1,
                  365, 371, 367, -1,
                  367, 371, 369, -1,
                  353, 388, 376, -1,
                  376, 388, 378, -1,
                  378, 388, 380, -1,
                  380, 388, 382, -1,
                  382, 388, 384, -1,
                  384, 388, 386, -1,
                  391, 227, 390, -1,
                  390, 227, 226, -1,
                  308, 390, 226, -1,
                  308, 392, 390, -1,
                  268, 350, 278, -1,
                  278, 350, 337, -1,
                  393, 278, 337, -1,
                  393, 309, 278, -1,
                  312, 377, 310, -1,
                  312, 375, 377, -1,
                  377, 379, 310, -1,
                  310, 379, 349, -1,
                  349, 379, 381, -1,
                  347, 381, 383, -1,
                  345, 383, 385, -1,
                  343, 385, 387, -1,
                  341, 387, 392, -1,
                  393, 341, 392, -1,
                  393, 339, 341, -1,
                  393, 337, 339, -1,
                  349, 381, 347, -1,
                  347, 383, 345, -1,
                  345, 385, 343, -1,
                  387, 389, 392, -1,
                  392, 389, 390, -1,
                  341, 343, 387, -1,
                  394, 395, 396, -1,
                  396, 395, 397, -1,
                  398, 399, 394, -1,
                  394, 399, 395, -1,
                  398, 400, 399, -1,
                  399, 400, 401, -1,
                  396, 397, 400, -1,
                  400, 397, 401, -1,
                  396, 391, 394, -1,
                  396, 227, 391, -1,
                  396, 234, 227, -1,
                  396, 267, 234, -1,
                  396, 400, 267, -1,
                  267, 400, 268, -1,
                  268, 400, 398, -1,
                  350, 398, 312, -1,
                  350, 268, 398, -1,
                  398, 394, 312, -1,
                  312, 394, 375, -1,
                  375, 394, 391, -1,
                  124, 114, 125, -1,
                  125, 114, 117, -1,
                  178, 125, 117, -1,
                  178, 402, 125, -1,
                  103, 106, 168, -1,
                  168, 106, 169, -1,
                  169, 106, 179, -1,
                  179, 106, 403, -1,
                  125, 402, 194, -1,
                  194, 402, 192, -1,
                  192, 402, 403, -1,
                  208, 403, 206, -1,
                  208, 192, 403, -1,
                  208, 190, 192, -1,
                  208, 210, 190, -1,
                  190, 210, 188, -1,
                  188, 210, 212, -1,
                  186, 212, 214, -1,
                  184, 214, 216, -1,
                  182, 216, 218, -1,
                  135, 218, 104, -1,
                  135, 182, 218, -1,
                  403, 106, 206, -1,
                  188, 212, 186, -1,
                  186, 214, 184, -1,
                  184, 216, 182, -1,
                  404, 405, 406, -1,
                  406, 405, 407, -1,
                  408, 409, 405, -1,
                  405, 409, 407, -1,
                  410, 411, 408, -1,
                  408, 411, 409, -1,
                  410, 404, 411, -1,
                  411, 404, 406, -1,
                  404, 124, 405, -1,
                  404, 114, 124, -1,
                  404, 115, 114, -1,
                  404, 167, 115, -1,
                  404, 410, 167, -1,
                  167, 410, 168, -1,
                  168, 410, 103, -1,
                  103, 410, 408, -1,
                  104, 408, 405, -1,
                  135, 405, 124, -1,
                  135, 104, 405, -1,
                  103, 408, 104, -1,
                  406, 407, 411, -1,
                  411, 407, 409, -1,
                  397, 395, 401, -1,
                  401, 395, 399, -1,
                  412, 413, 414, -1,
                  414, 413, 415, -1,
                  412, 416, 413, -1,
                  413, 416, 417, -1,
                  416, 418, 417, -1,
                  417, 418, 419, -1,
                  418, 414, 419, -1,
                  419, 414, 415, -1,
                  308, 414, 392, -1,
                  308, 412, 414, -1,
                  308, 402, 412, -1,
                  308, 309, 402, -1,
                  402, 309, 403, -1,
                  403, 309, 418, -1,
                  416, 403, 418, -1,
                  416, 179, 403, -1,
                  416, 178, 179, -1,
                  416, 412, 178, -1,
                  178, 412, 402, -1,
                  309, 393, 418, -1,
                  418, 393, 392, -1,
                  414, 418, 392, -1,
                  415, 413, 419, -1,
                  419, 413, 417, -1,
                  420, 421, 422, -1,
                  422, 421, 423, -1,
                  424, 425, 420, -1,
                  420, 425, 421, -1,
                  426, 427, 424, -1,
                  424, 427, 425, -1,
                  426, 428, 427, -1,
                  427, 428, 429, -1,
                  428, 430, 429, -1,
                  429, 430, 431, -1,
                  431, 423, 429, -1,
                  429, 423, 421, -1,
                  425, 429, 421, -1,
                  425, 427, 429, -1,
                  424, 420, 428, -1,
                  426, 424, 428, -1,
                  430, 428, 422, -1,
                  422, 428, 420, -1,
                  430, 422, 432, -1,
                  432, 422, 433, -1,
                  423, 431, 434, -1,
                  434, 431, 435, -1,
                  329, 292, 331, -1,
                  331, 292, 293, -1,
                  436, 437, 329, -1,
                  329, 437, 292, -1,
                  438, 439, 436, -1,
                  436, 439, 437, -1,
                  440, 441, 438, -1,
                  438, 441, 439, -1,
                  442, 443, 440, -1,
                  440, 443, 441, -1,
                  435, 431, 442, -1,
                  442, 431, 430, -1,
                  443, 430, 432, -1,
                  443, 442, 430, -1,
                  434, 444, 423, -1,
                  423, 444, 422, -1,
                  422, 444, 445, -1,
                  433, 422, 445, -1,
                  333, 294, 444, -1,
                  444, 294, 445, -1,
                  331, 293, 333, -1,
                  333, 293, 294, -1,
                  436, 329, 438, -1,
                  438, 329, 331, -1,
                  333, 438, 331, -1,
                  333, 440, 438, -1,
                  333, 444, 440, -1,
                  440, 444, 442, -1,
                  442, 444, 435, -1,
                  435, 444, 434, -1,
                  293, 439, 294, -1,
                  293, 292, 439, -1,
                  439, 292, 437, -1,
                  439, 441, 294, -1,
                  294, 441, 445, -1,
                  445, 441, 443, -1,
                  432, 445, 443, -1,
                  432, 433, 445, -1,
                  446, 447, 448, -1,
                  448, 447, 449, -1,
                  447, 450, 449, -1,
                  449, 450, 451, -1,
                  452, 453, 450, -1,
                  450, 453, 451, -1,
                  452, 454, 453, -1,
                  453, 454, 455, -1,
                  456, 457, 454, -1,
                  454, 457, 455, -1,
                  451, 453, 449, -1,
                  449, 453, 455, -1,
                  457, 449, 455, -1,
                  457, 448, 449, -1,
                  446, 456, 447, -1,
                  447, 456, 454, -1,
                  452, 447, 454, -1,
                  452, 450, 447, -1,
                  456, 446, 458, -1,
                  458, 446, 459, -1,
                  457, 460, 448, -1,
                  448, 460, 461, -1,
                  461, 462, 448, -1,
                  448, 462, 446, -1,
                  446, 462, 463, -1,
                  459, 446, 463, -1,
                  464, 465, 462, -1,
                  462, 465, 463, -1,
                  466, 467, 464, -1,
                  464, 467, 465, -1,
                  466, 468, 467, -1,
                  467, 468, 469, -1,
                  357, 244, 468, -1,
                  468, 244, 469, -1,
                  357, 355, 244, -1,
                  244, 355, 243, -1,
                  351, 242, 355, -1,
                  355, 242, 243, -1,
                  470, 471, 351, -1,
                  351, 471, 242, -1,
                  460, 457, 470, -1,
                  470, 457, 456, -1,
                  471, 456, 458, -1,
                  471, 470, 456, -1,
                  460, 470, 461, -1,
                  461, 470, 462, -1,
                  462, 470, 464, -1,
                  464, 470, 351, -1,
                  466, 351, 355, -1,
                  357, 466, 355, -1,
                  357, 468, 466, -1,
                  464, 351, 466, -1,
                  458, 459, 471, -1,
                  471, 459, 463, -1,
                  465, 471, 463, -1,
                  465, 242, 471, -1,
                  465, 467, 242, -1,
                  242, 467, 243, -1,
                  243, 467, 244, -1,
                  244, 467, 469, -1
                ]
              }
            }
          ]
        }
      ]
    }
  ]
}
