#VRML V2.0 utf8

# Produced by 3D Exploration VRML exporter
# http://www.xdsoft.com/explorer/

DEF Frm Transform {
  scale 0.001 0.001 0.001
  rotation 1 0 0 1.57
  children [
    DEF object Transform {
      children [
        DEF object1 Transform {
          children [
            Shape {
					appearance Appearance {
						material Material {
              diffuseColor 0.5 0.7 0.6
						}
					}
              geometry IndexedFaceSet {
                coord Coordinate { point [
                  9.87729 -115.5 30.3992,18.7877 -115.5 25.8591,15.2963 -105.5 47.0773,29.0954 -105.5 40.0463,25.8591 -115.5 18.7877,
                  40.0463 -105.5 29.0954,30.3992 -115.5 9.87729,47.0773 -105.5 15.2963,31.9636 -115.5 0,49.5 -105.5 0,30.3992 -115.5 -9.87729,
                  47.0773 -105.5 -15.2963,25.8591 -115.5 -18.7877,40.0463 -105.5 -29.0954,18.7877 -115.5 -25.8591,29.0954 -105.5 -40.0463,
                  9.87729 -115.5 -30.3992,15.2963 -105.5 -47.0773,0 -115.5 -31.9636,0 -105.5 -49.5,-9.87729 -115.5 -30.3992,
                  -15.2963 -105.5 -47.0773,-18.7877 -115.5 -25.8591,-29.0954 -105.5 -40.0463,-25.8591 -115.5 -18.7877,-40.0463 -105.5 -29.0954,
                  -30.3992 -115.5 -9.87729,-47.0773 -105.5 -15.2963,-31.9636 -115.5 0,-49.5 -105.5 0,-30.3992 -115.5 9.87729,
                  -47.0773 -105.5 15.2963,-25.8591 -115.5 18.7877,-40.0463 -105.5 29.0954,-18.7877 -115.5 25.8591,-29.0954 -105.5 40.0463,
                  -9.87729 -115.5 30.3992,-15.2963 -105.5 47.0773,0 -115.5 31.9636,0 -105.5 49.5,29.0954 -94.4999 40.0463,
                  15.2963 -94.4999 47.0773,40.0463 -94.4999 29.0954,47.0773 -94.4999 15.2963,49.5 -94.4999 0,47.0773 -94.4999 -15.2963,
                  40.0463 -94.4999 -29.0954,29.0954 -94.4999 -40.0463,15.2963 -94.4999 -47.0773,0 -94.4999 -49.5,-15.2963 -94.4999 -47.0773,
                  -29.0954 -94.4999 -40.0463,-40.0463 -94.4999 -29.0954,-47.0773 -94.4999 -15.2963,-49.5 -94.4999 0,-47.0773 -94.4999 15.2963,
                  -40.0463 -94.4999 29.0954,-29.0954 -94.4999 40.0463,-15.2963 -94.4999 47.0773,0 -94.4999 49.5]
                }
                coordIndex [
                  0, 1, 2, -1,
                  2, 1, 3, -1,
                  1, 4, 3, -1,
                  3, 4, 5, -1,
                  4, 6, 5, -1,
                  5, 6, 7, -1,
                  8, 9, 6, -1,
                  6, 9, 7, -1,
                  10, 11, 8, -1,
                  8, 11, 9, -1,
                  12, 13, 10, -1,
                  10, 13, 11, -1,
                  14, 15, 12, -1,
                  12, 15, 13, -1,
                  16, 17, 14, -1,
                  14, 17, 15, -1,
                  18, 19, 16, -1,
                  16, 19, 17, -1,
                  20, 21, 18, -1,
                  18, 21, 19, -1,
                  22, 23, 20, -1,
                  20, 23, 21, -1,
                  24, 25, 22, -1,
                  22, 25, 23, -1,
                  24, 26, 25, -1,
                  25, 26, 27, -1,
                  26, 28, 27, -1,
                  27, 28, 29, -1,
                  28, 30, 29, -1,
                  29, 30, 31, -1,
                  30, 32, 31, -1,
                  31, 32, 33, -1,
                  32, 34, 33, -1,
                  33, 34, 35, -1,
                  34, 36, 35, -1,
                  35, 36, 37, -1,
                  36, 38, 37, -1,
                  37, 38, 39, -1,
                  38, 0, 39, -1,
                  39, 0, 2, -1,
                  0, 16, 1, -1,
                  0, 38, 16, -1,
                  16, 38, 18, -1,
                  18, 38, 36, -1,
                  20, 36, 22, -1,
                  20, 18, 36, -1,
                  36, 34, 22, -1,
                  22, 34, 24, -1,
                  24, 34, 32, -1,
                  30, 24, 32, -1,
                  30, 26, 24, -1,
                  30, 28, 26, -1,
                  16, 14, 1, -1,
                  1, 14, 4, -1,
                  4, 14, 12, -1,
                  10, 4, 12, -1,
                  10, 6, 4, -1,
                  10, 8, 6, -1,
                  3, 40, 2, -1,
                  2, 40, 41, -1,
                  3, 5, 40, -1,
                  40, 5, 42, -1,
                  5, 7, 42, -1,
                  42, 7, 43, -1,
                  9, 44, 7, -1,
                  7, 44, 43, -1,
                  9, 11, 44, -1,
                  44, 11, 45, -1,
                  11, 13, 45, -1,
                  45, 13, 46, -1,
                  13, 15, 46, -1,
                  46, 15, 47, -1,
                  17, 48, 15, -1,
                  15, 48, 47, -1,
                  19, 49, 17, -1,
                  17, 49, 48, -1,
                  21, 50, 19, -1,
                  19, 50, 49, -1,
                  21, 23, 50, -1,
                  50, 23, 51, -1,
                  25, 52, 23, -1,
                  23, 52, 51, -1,
                  27, 53, 25, -1,
                  25, 53, 52, -1,
                  27, 29, 53, -1,
                  53, 29, 54, -1,
                  31, 55, 29, -1,
                  29, 55, 54, -1,
                  33, 56, 31, -1,
                  31, 56, 55, -1,
                  35, 57, 33, -1,
                  33, 57, 56, -1,
                  35, 37, 57, -1,
                  57, 37, 58, -1,
                  39, 59, 37, -1,
                  37, 59, 58, -1,
                  39, 2, 59, -1,
                  59, 2, 41, -1,
                  59, 41, 58, -1,
                  58, 41, 40, -1,
                  57, 40, 56, -1,
                  57, 58, 40, -1,
                  40, 42, 56, -1,
                  56, 42, 55, -1,
                  55, 42, 54, -1,
                  54, 42, 43, -1,
                  44, 54, 43, -1,
                  44, 53, 54, -1,
                  44, 45, 53, -1,
                  53, 45, 46, -1,
                  52, 46, 51, -1,
                  52, 53, 46, -1,
                  51, 46, 50, -1,
                  50, 46, 47, -1,
                  48, 50, 47, -1,
                  48, 49, 50, -1
                ]
              }
            }
          ]
        }
      ]
    }
  ]
}
DEF Frm1 Transform {
  scale 0.001 0.001 0.001
  rotation 1 0 0 1.57
  children [
    DEF object11 Transform {
      children [
        DEF object2 Transform {
          children [
            Shape {
					appearance Appearance {
						material Material {
              diffuseColor 0.5 0.7 0.6
						}
					}
              geometry IndexedFaceSet {
                coord Coordinate { point [
                  12.5152 38.5178 -47.0178,12.5152 38.5178 -51.5,0 40.5 -49,0 40.5 -51.5,15.1418 37.1794 -46.6018,23.8053 32.7652 -51.5,
                  23.8053 32.7652 -46,16.3229 36.5777 -46,-16.3229 36.5777 -46,-23.8053 32.7652 -46,-16.3229 32.5001 -46,-17.7916 20.0825 -46,
                  -12.4685 23.7568 -46,-6.42084 26.0504 -46,0 32.5001 -46,0 26.83 -46,-22.0807 15.2412 -46,-32.7652 23.8053 -46,
                  -25.0865 9.51405 -46,-26.6344 3.234 -46,-38.5178 12.5152 -46,-40.5 0 -46,-26.6344 -3.234 -46,-38.5178 -12.5152 -46,
                  -32.7652 -23.8053 -46,-25.0865 -9.51405 -46,-22.0807 -15.2412 -46,-23.8053 -32.7652 -46,-17.7916 -20.0825 -46,
                  -12.5152 -38.5178 -46,-12.4685 -23.7568 -46,-6.42084 -26.0504 -46,0 -40.5 -46,0 -26.83 -46,16.3229 32.5001 -46,
                  17.7916 20.0825 -46,22.0807 15.2412 -46,32.7652 23.8053 -46,25.0865 9.51405 -46,38.5178 12.5152 -46,26.6344 3.234 -46,
                  40.5 0 -46,26.6344 -3.234 -46,38.5178 -12.5152 -46,25.0865 -9.51405 -46,32.7652 -23.8053 -46,22.0807 -15.2412 -46,
                  23.8053 -32.7652 -46,17.7916 -20.0825 -46,12.5152 -38.5178 -46,12.4685 -23.7568 -46,6.42084 -26.0504 -46,6.42084 26.0504 -46,
                  12.4685 23.7568 -46,32.7652 23.8053 -51.5,38.5178 12.5152 -51.5,-12.5152 38.5178 -47.0178,-12.5152 38.5178 -51.5,
                  -15.1418 37.1794 -46.6018,-23.8053 32.7652 -51.5,-32.7652 23.8053 -51.5,-38.5178 12.5152 -51.5,-40.5 0 -51.5,
                  -38.5178 -12.5152 -51.5,-32.7652 -23.8053 -51.5,-23.8053 -32.7652 -51.5,-12.5152 -38.5178 -51.5,0 -40.5 -51.5,
                  12.5152 -38.5178 -51.5,23.8053 -32.7652 -51.5,32.7652 -23.8053 -51.5,38.5178 -12.5152 -51.5,40.5 0 -51.5,0 58.5001 -49,
                  -15.1418 58.5001 -46.6018,-28.8015 58.5001 -39.6418,-28.8015 32.5001 -39.6418,14.2148 32.5001 -43.7486,
                  27.0381 32.5001 -37.2148,28.8015 32.5001 -39.6418,37.2148 32.5001 -27.0381,39.6418 32.5001 -28.8015,43.7486 32.5001 -14.2148,
                  46.6018 32.5001 -15.1418,46 32.5001 0,49 32.5001 0,46.6018 32.5001 15.1418,43.7486 32.5001 14.2148,39.6418 32.5001 28.8015,
                  37.2148 32.5001 27.0381,28.8015 32.5001 39.6418,27.0381 32.5001 37.2148,16.3229 32.5001 46,14.2148 32.5001 43.7486,
                  0 32.5001 46,-14.2148 32.5001 -43.7486,-27.0381 32.5001 -37.2148,-37.2148 32.5001 -27.0381,-39.6418 32.5001 -28.8015,
                  -43.7486 32.5001 -14.2148,-46.6018 32.5001 -15.1418,-46 32.5001 -8,-49 32.5001 0,-46 32.5001 8,-46.6018 32.5001 15.1418,
                  -43.7486 32.5001 14.2148,-39.6418 32.5001 28.8015,-37.2148 32.5001 27.0381,-28.8015 32.5001 39.6418,-27.0381 32.5001 37.2148,
                  -16.3229 32.5001 46,-14.2148 32.5001 43.7486,-44.7329 32.5001 -8,-44.7329 32.5001 8,-12.5152 38.5178 47.0178,
                  -12.5152 38.5178 51.5,0 40.5 49,0 40.5 51.5,-15.1418 37.1794 46.6018,-23.8053 32.7652 51.5,-23.8053 32.7652 46,
                  -16.3229 36.5777 46,16.3229 36.5777 46,23.8053 32.7652 46,17.7916 20.0825 46,12.4685 23.7568 46,6.42084 26.0504 46,0 26.83 46,
                  22.0807 15.2412 46,32.7652 23.8053 46,25.0865 9.51405 46,26.6344 3.234 46,38.5178 12.5152 46,40.5 0 46,26.6344 -3.234 46,
                  38.5178 -12.5152 46,32.7652 -23.8053 46,25.0865 -9.51405 46,22.0807 -15.2412 46,23.8053 -32.7652 46,17.7916 -20.0825 46,
                  12.5152 -38.5178 46,12.4685 -23.7568 46,6.42084 -26.0504 46,0 -40.5 46,0 -26.83 46,-17.7916 20.0825 46,-22.0807 15.2412 46,
                  -32.7652 23.8053 46,-25.0865 9.51405 46,-38.5178 12.5152 46,-26.6344 3.234 46,-40.5 0 46,-26.6344 -3.234 46,
                  -38.5178 -12.5152 46,-25.0865 -9.51405 46,-32.7652 -23.8053 46,-22.0807 -15.2412 46,-23.8053 -32.7652 46,-17.7916 -20.0825 46,
                  -12.5152 -38.5178 46,-12.4685 -23.7568 46,-6.42084 -26.0504 46,-6.42084 26.0504 46,-12.4685 23.7568 46,-32.7652 23.8053 51.5,
                  -38.5178 12.5152 51.5,12.5152 38.5178 47.0178,12.5152 38.5178 51.5,15.1418 37.1794 46.6018,23.8053 32.7652 51.5,
                  32.7652 23.8053 51.5,38.5178 12.5152 51.5,40.5 0 51.5,38.5178 -12.5152 51.5,32.7652 -23.8053 51.5,23.8053 -32.7652 51.5,
                  12.5152 -38.5178 51.5,0 -40.5 51.5,-12.5152 -38.5178 51.5,-23.8053 -32.7652 51.5,-32.7652 -23.8053 51.5,-38.5178 -12.5152 51.5,
                  -40.5 0 51.5,0 58.5001 49,15.1418 58.5001 46.6018,28.8015 58.5001 39.6418,-9.75841 -24.9924 44.4544,-14.2148 -22.755 43.7486,
                  -4.96496 -26.3666 45.2136,-16.9731 -20.7789 42.3432,-19.46 -18.4704 41.076,-21.6356 -15.8666 39.9675,-23.4652 -13.009 39.0353,
                  -24.9195 -9.94327 38.2943,-25.9752 -6.71854 37.7564,-26.6154 -3.38635 37.4301,-26.83 0 37.3208,-26.6154 3.38635 37.4301,
                  -25.9752 6.71854 37.7564,-24.9195 9.94327 38.2943,-23.4652 13.009 39.0353,-21.6356 15.8666 39.9675,-19.46 18.4704 41.076,
                  -16.9731 20.7789 42.3432,-14.2148 22.755 43.7486,-9.75841 24.9924 44.4544,-4.96496 26.3666 45.2136,4.96496 -26.3666 45.2136,
                  9.75841 -24.9924 44.4544,14.2148 -22.755 43.7486,16.9731 -20.7789 42.3432,19.46 -18.4704 41.076,21.6356 -15.8666 39.9675,
                  23.4652 -13.009 39.0353,24.9195 -9.94327 38.2943,25.9752 -6.71854 37.7564,26.6154 -3.38635 37.4301,26.83 0 37.3208,
                  26.6154 3.38635 37.4301,25.9752 6.71854 37.7564,24.9195 9.94327 38.2943,23.4652 13.009 39.0353,21.6356 15.8666 39.9675,
                  19.46 18.4704 41.076,16.9731 20.7789 42.3432,14.2148 22.755 43.7486,9.75841 24.9924 44.4544,4.96496 26.3666 45.2136,
                  9.75841 -24.9924 -44.4544,14.2148 -22.755 -43.7486,4.96496 -26.3666 -45.2136,16.9731 -20.7789 -42.3432,19.46 -18.4704 -41.076,
                  21.6356 -15.8666 -39.9675,23.4652 -13.009 -39.0353,24.9195 -9.94327 -38.2943,25.9752 -6.71854 -37.7564,
                  26.6154 -3.38635 -37.4301,26.83 0 -37.3208,26.6154 3.38635 -37.4301,25.9752 6.71854 -37.7564,24.9195 9.94327 -38.2943,
                  23.4652 13.009 -39.0353,21.6356 15.8666 -39.9675,19.46 18.4704 -41.076,16.9731 20.7789 -42.3432,14.2148 22.755 -43.7486,
                  9.75841 24.9924 -44.4544,4.96496 26.3666 -45.2136,-4.96496 -26.3666 -45.2136,-9.75841 -24.9924 -44.4544,
                  -14.2148 -22.755 -43.7486,-16.9731 -20.7789 -42.3432,-19.46 -18.4704 -41.076,-21.6356 -15.8666 -39.9675,
                  -23.4652 -13.009 -39.0353,-24.9195 -9.94327 -38.2943,-25.9752 -6.71854 -37.7564,-26.6154 -3.38635 -37.4301,-26.83 0 -37.3208,
                  -26.6154 3.38635 -37.4301,-25.9752 6.71854 -37.7564,-24.9195 9.94327 -38.2943,-23.4652 13.009 -39.0353,
                  -21.6356 15.8666 -39.9675,-19.46 18.4704 -41.076,-16.9731 20.7789 -42.3432,-14.2148 22.755 -43.7486,-9.75841 24.9924 -44.4544,
                  -4.96496 26.3666 -45.2136,14.2148 -65.0399 -43.7486,27.0381 -65.0399 -37.2148,-14.2148 -65.0399 43.7486,
                  -27.0381 -65.0399 37.2148,-46 -23.2465 8,-46 -23.2465 -8,-44.7329 -65.0399 -8,-53.5 -51.5 -8,-48.2329 -71.0999 -8,
                  -53.5 -92.9999 -8,-48.2329 -92.9999 -8,-44.6906 -65.0399 -8,-53.5 -51.5 8,-53.5 -92.9999 8,-44.7329 -65.0399 8,
                  -48.2329 -71.0999 8,-48.2329 -92.9999 8,-44.6906 -65.0399 8,-47.0773 -71.0999 15.2963,-43.7083 -65.0399 14.2017,
                  -47.0773 -92.9999 15.2963,-47.0773 -71.0999 -15.2963,-47.0773 -92.9999 -15.2963,-43.7083 -65.0399 -14.2017,
                  -43.7486 -65.0399 14.2148,-37.2148 -65.0399 27.0381,-37.1805 -65.0399 27.0132,-27.0132 -65.0399 37.1805,
                  -14.2017 -65.0399 43.7083,0 -65.0399 46,0 -65.0399 45.9576,14.2017 -65.0399 43.7083,14.2148 -65.0399 43.7486,
                  27.0132 -65.0399 37.1805,27.0381 -65.0399 37.2148,37.1805 -65.0399 27.0132,37.2148 -65.0399 27.0381,43.7083 -65.0399 14.2017,
                  43.7486 -65.0399 14.2148,45.9576 -65.0399 0,46 -65.0399 0,43.7486 -65.0399 -14.2148,43.7083 -65.0399 -14.2017,
                  37.2148 -65.0399 -27.0381,37.1805 -65.0399 -27.0132,27.0132 -65.0399 -37.1805,14.2017 -65.0399 -43.7083,0 -65.0399 -46,
                  0 -65.0399 -45.9576,-14.2017 -65.0399 -43.7083,-14.2148 -65.0399 -43.7486,-27.0132 -65.0399 -37.1805,
                  -27.0381 -65.0399 -37.2148,-37.1805 -65.0399 -27.0132,-37.2148 -65.0399 -27.0381,-43.7486 -65.0399 -14.2148,
                  -15.1418 58.5001 46.6018,-28.8015 58.5001 39.6418,-39.6418 58.5001 28.8015,-46.6018 58.5001 15.1418,-49 58.5001 0,
                  -46.6018 58.5001 -15.1418,-39.6418 58.5001 -28.8015,15.1418 58.5001 -46.6018,28.8015 58.5001 -39.6418,39.6418 58.5001 -28.8015,
                  46.6018 58.5001 -15.1418,49 58.5001 0,46.6018 58.5001 15.1418,39.6418 58.5001 28.8015,-29.0954 -71.0999 40.0463,
                  -15.2963 -71.0999 47.0773,-40.0463 -71.0999 29.0954,-40.0463 -71.0999 -29.0954,-29.0954 -71.0999 -40.0463,
                  -15.2963 -71.0999 -47.0773,0 -71.0999 -49.5,15.2963 -71.0999 -47.0773,29.0954 -71.0999 -40.0463,40.0463 -71.0999 -29.0954,
                  47.0773 -71.0999 -15.2963,49.5 -71.0999 0,47.0773 -71.0999 15.2963,40.0463 -71.0999 29.0954,29.0954 -71.0999 40.0463,
                  15.2963 -71.0999 47.0773,0 -71.0999 49.5,-45.1752 -92.9999 14.6783,-47.5 -92.9999 0,-38.4283 -92.9999 27.9198,
                  -40.0463 -92.9999 29.0954,-27.9198 -92.9999 38.4283,-29.0954 -92.9999 40.0463,-14.6783 -92.9999 45.1752,
                  -15.2963 -92.9999 47.0773,0 -92.9999 47.5,0 -92.9999 49.5,15.2963 -92.9999 47.0773,14.6783 -92.9999 45.1752,
                  29.0954 -92.9999 40.0463,27.9198 -92.9999 38.4283,40.0463 -92.9999 29.0954,38.4283 -92.9999 27.9198,47.0773 -92.9999 15.2963,
                  45.1752 -92.9999 14.6783,49.5 -92.9999 0,47.5 -92.9999 0,45.1752 -92.9999 -14.6783,47.0773 -92.9999 -15.2963,
                  38.4283 -92.9999 -27.9198,40.0463 -92.9999 -29.0954,27.9198 -92.9999 -38.4283,29.0954 -92.9999 -40.0463,
                  14.6783 -92.9999 -45.1752,15.2963 -92.9999 -47.0773,0 -92.9999 -47.5,0 -92.9999 -49.5,-15.2963 -92.9999 -47.0773,
                  -14.6783 -92.9999 -45.1752,-29.0954 -92.9999 -40.0463,-27.9198 -92.9999 -38.4283,-40.0463 -92.9999 -29.0954,
                  -38.4283 -92.9999 -27.9198,-45.1752 -92.9999 -14.6783,0 -94.4999 47.5,-14.6783 -94.4999 45.1752,-27.9198 -94.4999 38.4283,
                  -38.4283 -94.4999 27.9198,-45.1752 -94.4999 14.6783,-47.5 -94.4999 0,-45.1752 -94.4999 -14.6783,-38.4283 -94.4999 -27.9198,
                  -27.9198 -94.4999 -38.4283,-14.6783 -94.4999 -45.1752,0 -94.4999 -47.5,14.6783 -94.4999 -45.1752,27.9198 -94.4999 -38.4283,
                  38.4283 -94.4999 -27.9198,45.1752 -94.4999 -14.6783,47.5 -94.4999 0,45.1752 -94.4999 14.6783,38.4283 -94.4999 27.9198,
                  27.9198 -94.4999 38.4283,14.6783 -94.4999 45.1752]
                }
                coordIndex [
                  0, 1, 2, -1,
                  2, 1, 3, -1,
                  0, 4, 1, -1,
                  1, 4, 5, -1,
                  5, 4, 6, -1,
                  6, 4, 7, -1,
                  8, 9, 10, -1,
                  10, 9, 11, -1,
                  12, 10, 11, -1,
                  12, 13, 10, -1,
                  10, 13, 14, -1,
                  14, 13, 15, -1,
                  11, 9, 16, -1,
                  16, 9, 17, -1,
                  18, 17, 19, -1,
                  18, 16, 17, -1,
                  17, 20, 19, -1,
                  19, 20, 21, -1,
                  22, 21, 23, -1,
                  24, 22, 23, -1,
                  24, 25, 22, -1,
                  24, 26, 25, -1,
                  24, 27, 26, -1,
                  26, 27, 28, -1,
                  28, 27, 29, -1,
                  30, 29, 31, -1,
                  30, 28, 29, -1,
                  19, 21, 22, -1,
                  29, 32, 31, -1,
                  31, 32, 33, -1,
                  7, 34, 6, -1,
                  6, 34, 35, -1,
                  36, 6, 35, -1,
                  36, 37, 6, -1,
                  36, 38, 37, -1,
                  37, 38, 39, -1,
                  39, 38, 40, -1,
                  41, 40, 42, -1,
                  43, 42, 44, -1,
                  45, 44, 46, -1,
                  47, 46, 48, -1,
                  49, 48, 50, -1,
                  51, 49, 50, -1,
                  51, 32, 49, -1,
                  51, 33, 32, -1,
                  14, 52, 34, -1,
                  14, 15, 52, -1,
                  52, 53, 34, -1,
                  34, 53, 35, -1,
                  39, 40, 41, -1,
                  41, 42, 43, -1,
                  43, 44, 45, -1,
                  45, 46, 47, -1,
                  47, 48, 49, -1,
                  54, 37, 55, -1,
                  55, 37, 39, -1,
                  5, 6, 54, -1,
                  54, 6, 37, -1,
                  56, 2, 57, -1,
                  57, 2, 3, -1,
                  56, 57, 58, -1,
                  58, 57, 59, -1,
                  9, 58, 59, -1,
                  9, 8, 58, -1,
                  60, 17, 59, -1,
                  59, 17, 9, -1,
                  60, 61, 17, -1,
                  17, 61, 20, -1,
                  62, 21, 61, -1,
                  61, 21, 20, -1,
                  63, 23, 62, -1,
                  62, 23, 21, -1,
                  64, 24, 63, -1,
                  63, 24, 23, -1,
                  64, 65, 24, -1,
                  24, 65, 27, -1,
                  66, 29, 65, -1,
                  65, 29, 27, -1,
                  67, 32, 66, -1,
                  66, 32, 29, -1,
                  68, 49, 67, -1,
                  67, 49, 32, -1,
                  69, 47, 68, -1,
                  68, 47, 49, -1,
                  69, 70, 47, -1,
                  47, 70, 45, -1,
                  71, 43, 70, -1,
                  70, 43, 45, -1,
                  72, 41, 71, -1,
                  71, 41, 43, -1,
                  55, 39, 72, -1,
                  72, 39, 41, -1,
                  55, 62, 54, -1,
                  55, 72, 62, -1,
                  62, 72, 63, -1,
                  63, 72, 64, -1,
                  64, 72, 65, -1,
                  65, 72, 71, -1,
                  70, 65, 71, -1,
                  70, 69, 65, -1,
                  65, 69, 68, -1,
                  66, 68, 67, -1,
                  66, 65, 68, -1,
                  62, 61, 54, -1,
                  54, 61, 60, -1,
                  59, 54, 60, -1,
                  59, 57, 54, -1,
                  54, 57, 3, -1,
                  5, 3, 1, -1,
                  5, 54, 3, -1,
                  2, 56, 73, -1,
                  73, 56, 74, -1,
                  74, 56, 58, -1,
                  58, 8, 74, -1,
                  74, 8, 75, -1,
                  75, 8, 76, -1,
                  76, 8, 10, -1,
                  14, 34, 77, -1,
                  77, 34, 78, -1,
                  78, 34, 79, -1,
                  80, 79, 81, -1,
                  82, 81, 83, -1,
                  84, 83, 85, -1,
                  86, 84, 85, -1,
                  86, 87, 84, -1,
                  86, 88, 87, -1,
                  87, 88, 89, -1,
                  89, 88, 90, -1,
                  91, 90, 92, -1,
                  93, 92, 94, -1,
                  93, 91, 92, -1,
                  78, 79, 80, -1,
                  80, 81, 82, -1,
                  82, 83, 84, -1,
                  89, 90, 91, -1,
                  14, 95, 10, -1,
                  10, 95, 96, -1,
                  76, 96, 97, -1,
                  98, 97, 99, -1,
                  100, 99, 101, -1,
                  102, 101, 103, -1,
                  104, 103, 105, -1,
                  106, 105, 107, -1,
                  108, 107, 109, -1,
                  110, 109, 111, -1,
                  94, 110, 111, -1,
                  10, 96, 76, -1,
                  76, 97, 98, -1,
                  99, 112, 101, -1,
                  100, 101, 102, -1,
                  103, 113, 105, -1,
                  104, 105, 106, -1,
                  106, 107, 108, -1,
                  108, 109, 110, -1,
                  104, 102, 103, -1,
                  100, 98, 99, -1,
                  114, 115, 116, -1,
                  116, 115, 117, -1,
                  114, 118, 115, -1,
                  115, 118, 119, -1,
                  119, 118, 120, -1,
                  120, 118, 121, -1,
                  122, 123, 92, -1,
                  92, 123, 124, -1,
                  125, 92, 124, -1,
                  125, 126, 92, -1,
                  92, 126, 94, -1,
                  94, 126, 127, -1,
                  124, 123, 128, -1,
                  128, 123, 129, -1,
                  130, 129, 131, -1,
                  130, 128, 129, -1,
                  129, 132, 131, -1,
                  131, 132, 133, -1,
                  134, 133, 135, -1,
                  136, 134, 135, -1,
                  136, 137, 134, -1,
                  136, 138, 137, -1,
                  136, 139, 138, -1,
                  138, 139, 140, -1,
                  140, 139, 141, -1,
                  142, 141, 143, -1,
                  142, 140, 141, -1,
                  131, 133, 134, -1,
                  141, 144, 143, -1,
                  143, 144, 145, -1,
                  121, 110, 120, -1,
                  120, 110, 146, -1,
                  147, 120, 146, -1,
                  147, 148, 120, -1,
                  147, 149, 148, -1,
                  148, 149, 150, -1,
                  150, 149, 151, -1,
                  152, 151, 153, -1,
                  154, 153, 155, -1,
                  156, 155, 157, -1,
                  158, 157, 159, -1,
                  160, 159, 161, -1,
                  162, 160, 161, -1,
                  162, 144, 160, -1,
                  162, 145, 144, -1,
                  94, 163, 110, -1,
                  94, 127, 163, -1,
                  163, 164, 110, -1,
                  110, 164, 146, -1,
                  150, 151, 152, -1,
                  152, 153, 154, -1,
                  154, 155, 156, -1,
                  156, 157, 158, -1,
                  158, 159, 160, -1,
                  165, 148, 166, -1,
                  166, 148, 150, -1,
                  119, 120, 165, -1,
                  165, 120, 148, -1,
                  167, 116, 168, -1,
                  168, 116, 117, -1,
                  167, 168, 169, -1,
                  169, 168, 170, -1,
                  123, 169, 170, -1,
                  123, 122, 169, -1,
                  171, 129, 170, -1,
                  170, 129, 123, -1,
                  172, 132, 171, -1,
                  171, 132, 129, -1,
                  173, 133, 172, -1,
                  172, 133, 132, -1,
                  174, 135, 173, -1,
                  173, 135, 133, -1,
                  175, 136, 174, -1,
                  174, 136, 135, -1,
                  176, 139, 175, -1,
                  175, 139, 136, -1,
                  177, 141, 176, -1,
                  176, 141, 139, -1,
                  178, 144, 177, -1,
                  177, 144, 141, -1,
                  179, 160, 178, -1,
                  178, 160, 144, -1,
                  180, 158, 179, -1,
                  179, 158, 160, -1,
                  181, 156, 180, -1,
                  180, 156, 158, -1,
                  182, 154, 181, -1,
                  181, 154, 156, -1,
                  183, 152, 182, -1,
                  182, 152, 154, -1,
                  166, 150, 183, -1,
                  183, 150, 152, -1,
                  166, 173, 165, -1,
                  166, 183, 173, -1,
                  173, 183, 174, -1,
                  174, 183, 175, -1,
                  175, 183, 182, -1,
                  176, 182, 181, -1,
                  180, 176, 181, -1,
                  180, 179, 176, -1,
                  176, 179, 177, -1,
                  177, 179, 178, -1,
                  175, 182, 176, -1,
                  173, 172, 165, -1,
                  165, 172, 171, -1,
                  170, 165, 171, -1,
                  170, 168, 165, -1,
                  165, 168, 117, -1,
                  119, 117, 115, -1,
                  119, 165, 117, -1,
                  116, 167, 184, -1,
                  184, 167, 185, -1,
                  185, 167, 169, -1,
                  169, 122, 185, -1,
                  185, 122, 186, -1,
                  186, 122, 90, -1,
                  90, 122, 92, -1,
                  187, 161, 188, -1,
                  187, 162, 161, -1,
                  187, 189, 162, -1,
                  162, 189, 145, -1,
                  161, 159, 188, -1,
                  188, 159, 190, -1,
                  190, 159, 191, -1,
                  191, 159, 157, -1,
                  192, 157, 193, -1,
                  192, 191, 157, -1,
                  157, 155, 193, -1,
                  193, 155, 194, -1,
                  194, 155, 195, -1,
                  195, 155, 153, -1,
                  196, 153, 197, -1,
                  196, 195, 153, -1,
                  153, 151, 197, -1,
                  197, 151, 198, -1,
                  198, 151, 199, -1,
                  199, 151, 149, -1,
                  200, 149, 201, -1,
                  200, 199, 149, -1,
                  149, 147, 201, -1,
                  201, 147, 202, -1,
                  202, 147, 203, -1,
                  203, 147, 146, -1,
                  204, 146, 205, -1,
                  204, 203, 146, -1,
                  146, 164, 205, -1,
                  205, 164, 206, -1,
                  206, 164, 163, -1,
                  207, 163, 127, -1,
                  207, 206, 163, -1,
                  145, 208, 143, -1,
                  143, 208, 209, -1,
                  142, 209, 210, -1,
                  140, 210, 211, -1,
                  212, 140, 211, -1,
                  212, 138, 140, -1,
                  212, 213, 138, -1,
                  138, 213, 214, -1,
                  137, 214, 215, -1,
                  216, 137, 215, -1,
                  216, 134, 137, -1,
                  216, 217, 134, -1,
                  134, 217, 218, -1,
                  131, 218, 219, -1,
                  220, 131, 219, -1,
                  220, 130, 131, -1,
                  220, 221, 130, -1,
                  130, 221, 222, -1,
                  128, 222, 223, -1,
                  224, 128, 223, -1,
                  224, 124, 128, -1,
                  224, 225, 124, -1,
                  124, 225, 226, -1,
                  125, 226, 227, -1,
                  126, 227, 228, -1,
                  127, 126, 228, -1,
                  143, 209, 142, -1,
                  142, 210, 140, -1,
                  138, 214, 137, -1,
                  134, 218, 131, -1,
                  130, 222, 128, -1,
                  124, 226, 125, -1,
                  125, 227, 126, -1,
                  229, 50, 230, -1,
                  229, 51, 50, -1,
                  229, 231, 51, -1,
                  51, 231, 33, -1,
                  50, 48, 230, -1,
                  230, 48, 232, -1,
                  232, 48, 233, -1,
                  233, 48, 46, -1,
                  234, 46, 235, -1,
                  234, 233, 46, -1,
                  46, 44, 235, -1,
                  235, 44, 236, -1,
                  236, 44, 237, -1,
                  237, 44, 42, -1,
                  238, 42, 239, -1,
                  238, 237, 42, -1,
                  42, 40, 239, -1,
                  239, 40, 240, -1,
                  240, 40, 241, -1,
                  241, 40, 38, -1,
                  242, 38, 243, -1,
                  242, 241, 38, -1,
                  38, 36, 243, -1,
                  243, 36, 244, -1,
                  244, 36, 245, -1,
                  245, 36, 35, -1,
                  246, 35, 247, -1,
                  246, 245, 35, -1,
                  35, 53, 247, -1,
                  247, 53, 248, -1,
                  248, 53, 52, -1,
                  249, 52, 15, -1,
                  249, 248, 52, -1,
                  33, 250, 31, -1,
                  31, 250, 251, -1,
                  30, 251, 252, -1,
                  28, 252, 253, -1,
                  254, 28, 253, -1,
                  254, 26, 28, -1,
                  254, 255, 26, -1,
                  26, 255, 256, -1,
                  25, 256, 257, -1,
                  258, 25, 257, -1,
                  258, 22, 25, -1,
                  258, 259, 22, -1,
                  22, 259, 260, -1,
                  19, 260, 261, -1,
                  262, 19, 261, -1,
                  262, 18, 19, -1,
                  262, 263, 18, -1,
                  18, 263, 264, -1,
                  16, 264, 265, -1,
                  266, 16, 265, -1,
                  266, 11, 16, -1,
                  266, 267, 11, -1,
                  11, 267, 268, -1,
                  12, 268, 269, -1,
                  13, 269, 270, -1,
                  15, 13, 270, -1,
                  31, 251, 30, -1,
                  30, 252, 28, -1,
                  26, 256, 25, -1,
                  22, 260, 19, -1,
                  18, 264, 16, -1,
                  11, 268, 12, -1,
                  12, 269, 13, -1,
                  230, 232, 271, -1,
                  271, 232, 233, -1,
                  272, 233, 234, -1,
                  235, 272, 234, -1,
                  235, 236, 272, -1,
                  272, 236, 237, -1,
                  238, 272, 237, -1,
                  238, 239, 272, -1,
                  272, 239, 78, -1,
                  78, 239, 240, -1,
                  241, 78, 240, -1,
                  241, 242, 78, -1,
                  78, 242, 243, -1,
                  244, 78, 243, -1,
                  244, 245, 78, -1,
                  78, 245, 77, -1,
                  77, 245, 246, -1,
                  247, 77, 246, -1,
                  271, 233, 272, -1,
                  247, 248, 77, -1,
                  77, 248, 249, -1,
                  14, 249, 15, -1,
                  14, 77, 249, -1,
                  15, 270, 14, -1,
                  14, 270, 95, -1,
                  95, 270, 269, -1,
                  268, 95, 269, -1,
                  188, 190, 273, -1,
                  273, 190, 191, -1,
                  274, 191, 192, -1,
                  193, 274, 192, -1,
                  193, 194, 274, -1,
                  274, 194, 195, -1,
                  196, 274, 195, -1,
                  196, 197, 274, -1,
                  274, 197, 109, -1,
                  109, 197, 198, -1,
                  199, 109, 198, -1,
                  199, 200, 109, -1,
                  109, 200, 201, -1,
                  202, 109, 201, -1,
                  202, 203, 109, -1,
                  109, 203, 111, -1,
                  111, 203, 204, -1,
                  205, 111, 204, -1,
                  273, 191, 274, -1,
                  205, 206, 111, -1,
                  111, 206, 207, -1,
                  94, 207, 127, -1,
                  94, 111, 207, -1,
                  127, 228, 94, -1,
                  94, 228, 93, -1,
                  93, 228, 227, -1,
                  226, 93, 227, -1,
                  103, 101, 275, -1,
                  275, 101, 276, -1,
                  101, 112, 276, -1,
                  276, 112, 277, -1,
                  278, 277, 279, -1,
                  280, 279, 281, -1,
                  280, 278, 279, -1,
                  277, 282, 279, -1,
                  278, 276, 277, -1,
                  278, 283, 276, -1,
                  276, 283, 275, -1,
                  280, 284, 278, -1,
                  278, 284, 283, -1,
                  103, 275, 113, -1,
                  113, 275, 285, -1,
                  285, 275, 283, -1,
                  286, 283, 284, -1,
                  287, 286, 284, -1,
                  285, 283, 286, -1,
                  288, 285, 286, -1,
                  286, 289, 288, -1,
                  288, 289, 290, -1,
                  286, 287, 289, -1,
                  289, 287, 291, -1,
                  279, 292, 281, -1,
                  281, 292, 293, -1,
                  279, 282, 292, -1,
                  292, 282, 294, -1,
                  285, 288, 295, -1,
                  295, 288, 290, -1,
                  296, 290, 297, -1,
                  274, 297, 298, -1,
                  273, 298, 299, -1,
                  300, 299, 301, -1,
                  302, 300, 301, -1,
                  302, 303, 300, -1,
                  302, 304, 303, -1,
                  303, 304, 305, -1,
                  305, 304, 306, -1,
                  307, 306, 308, -1,
                  309, 308, 310, -1,
                  311, 310, 312, -1,
                  311, 309, 310, -1,
                  295, 290, 296, -1,
                  296, 297, 274, -1,
                  274, 298, 273, -1,
                  273, 299, 300, -1,
                  305, 306, 307, -1,
                  307, 308, 309, -1,
                  310, 313, 312, -1,
                  312, 313, 314, -1,
                  314, 313, 315, -1,
                  272, 315, 316, -1,
                  271, 316, 317, -1,
                  318, 317, 319, -1,
                  320, 318, 319, -1,
                  320, 321, 318, -1,
                  320, 322, 321, -1,
                  321, 322, 323, -1,
                  323, 322, 324, -1,
                  325, 324, 294, -1,
                  326, 294, 282, -1,
                  277, 326, 282, -1,
                  314, 315, 272, -1,
                  272, 316, 271, -1,
                  271, 317, 318, -1,
                  323, 324, 325, -1,
                  325, 294, 326, -1,
                  118, 327, 121, -1,
                  121, 327, 328, -1,
                  108, 121, 328, -1,
                  108, 110, 121, -1,
                  328, 329, 108, -1,
                  108, 329, 106, -1,
                  329, 330, 106, -1,
                  106, 330, 104, -1,
                  330, 331, 104, -1,
                  104, 331, 102, -1,
                  331, 332, 102, -1,
                  102, 332, 100, -1,
                  332, 333, 100, -1,
                  100, 333, 98, -1,
                  333, 75, 98, -1,
                  98, 75, 76, -1,
                  2, 73, 0, -1,
                  0, 73, 334, -1,
                  4, 0, 334, -1,
                  4, 334, 7, -1,
                  7, 334, 335, -1,
                  79, 7, 335, -1,
                  79, 34, 7, -1,
                  335, 336, 79, -1,
                  79, 336, 81, -1,
                  336, 337, 81, -1,
                  81, 337, 83, -1,
                  337, 338, 83, -1,
                  83, 338, 85, -1,
                  338, 339, 85, -1,
                  85, 339, 86, -1,
                  339, 340, 86, -1,
                  86, 340, 88, -1,
                  340, 186, 88, -1,
                  88, 186, 90, -1,
                  116, 184, 114, -1,
                  114, 184, 327, -1,
                  118, 114, 327, -1,
                  327, 74, 328, -1,
                  327, 73, 74, -1,
                  327, 184, 73, -1,
                  73, 184, 334, -1,
                  334, 184, 185, -1,
                  186, 334, 185, -1,
                  186, 340, 334, -1,
                  334, 340, 339, -1,
                  338, 334, 339, -1,
                  338, 335, 334, -1,
                  338, 336, 335, -1,
                  338, 337, 336, -1,
                  74, 75, 328, -1,
                  328, 75, 329, -1,
                  329, 75, 333, -1,
                  330, 333, 331, -1,
                  330, 329, 333, -1,
                  333, 332, 331, -1,
                  107, 296, 109, -1,
                  109, 296, 274, -1,
                  105, 295, 107, -1,
                  107, 295, 296, -1,
                  113, 285, 105, -1,
                  105, 285, 295, -1,
                  112, 99, 277, -1,
                  277, 99, 326, -1,
                  97, 325, 99, -1,
                  99, 325, 326, -1,
                  96, 323, 97, -1,
                  97, 323, 325, -1,
                  268, 267, 95, -1,
                  95, 267, 266, -1,
                  96, 266, 265, -1,
                  264, 96, 265, -1,
                  264, 263, 96, -1,
                  96, 263, 262, -1,
                  261, 96, 262, -1,
                  261, 260, 96, -1,
                  96, 260, 323, -1,
                  323, 260, 259, -1,
                  258, 323, 259, -1,
                  258, 257, 323, -1,
                  323, 257, 256, -1,
                  255, 323, 256, -1,
                  255, 254, 323, -1,
                  323, 254, 321, -1,
                  321, 254, 253, -1,
                  252, 321, 253, -1,
                  95, 266, 96, -1,
                  252, 251, 321, -1,
                  321, 251, 250, -1,
                  32, 250, 33, -1,
                  32, 321, 250, -1,
                  32, 318, 321, -1,
                  33, 231, 32, -1,
                  32, 231, 271, -1,
                  318, 32, 271, -1,
                  231, 229, 271, -1,
                  271, 229, 230, -1,
                  80, 314, 78, -1,
                  78, 314, 272, -1,
                  82, 312, 80, -1,
                  80, 312, 314, -1,
                  84, 311, 82, -1,
                  82, 311, 312, -1,
                  87, 309, 84, -1,
                  84, 309, 311, -1,
                  89, 307, 87, -1,
                  87, 307, 309, -1,
                  91, 305, 89, -1,
                  89, 305, 307, -1,
                  226, 225, 93, -1,
                  93, 225, 224, -1,
                  91, 224, 223, -1,
                  222, 91, 223, -1,
                  222, 221, 91, -1,
                  91, 221, 220, -1,
                  219, 91, 220, -1,
                  219, 218, 91, -1,
                  91, 218, 305, -1,
                  305, 218, 217, -1,
                  216, 305, 217, -1,
                  216, 215, 305, -1,
                  305, 215, 214, -1,
                  213, 305, 214, -1,
                  213, 212, 305, -1,
                  305, 212, 303, -1,
                  303, 212, 211, -1,
                  210, 303, 211, -1,
                  93, 224, 91, -1,
                  210, 209, 303, -1,
                  303, 209, 208, -1,
                  144, 208, 145, -1,
                  144, 303, 208, -1,
                  144, 300, 303, -1,
                  145, 189, 144, -1,
                  144, 189, 273, -1,
                  300, 144, 273, -1,
                  189, 187, 273, -1,
                  273, 187, 188, -1,
                  298, 341, 299, -1,
                  299, 341, 342, -1,
                  298, 297, 341, -1,
                  341, 297, 343, -1,
                  297, 290, 343, -1,
                  343, 290, 289, -1,
                  294, 324, 292, -1,
                  292, 324, 344, -1,
                  324, 322, 344, -1,
                  344, 322, 345, -1,
                  320, 346, 322, -1,
                  322, 346, 345, -1,
                  319, 347, 320, -1,
                  320, 347, 346, -1,
                  319, 317, 347, -1,
                  347, 317, 348, -1,
                  316, 349, 317, -1,
                  317, 349, 348, -1,
                  315, 350, 316, -1,
                  316, 350, 349, -1,
                  313, 351, 315, -1,
                  315, 351, 350, -1,
                  310, 352, 313, -1,
                  313, 352, 351, -1,
                  308, 353, 310, -1,
                  310, 353, 352, -1,
                  306, 354, 308, -1,
                  308, 354, 353, -1,
                  304, 355, 306, -1,
                  306, 355, 354, -1,
                  302, 356, 304, -1,
                  304, 356, 355, -1,
                  301, 357, 302, -1,
                  302, 357, 356, -1,
                  299, 342, 301, -1,
                  301, 342, 357, -1,
                  358, 287, 359, -1,
                  358, 291, 287, -1,
                  358, 360, 291, -1,
                  291, 360, 361, -1,
                  361, 360, 362, -1,
                  363, 362, 364, -1,
                  365, 364, 366, -1,
                  367, 366, 368, -1,
                  367, 365, 366, -1,
                  361, 362, 363, -1,
                  363, 364, 365, -1,
                  366, 369, 368, -1,
                  368, 369, 370, -1,
                  370, 369, 371, -1,
                  372, 371, 373, -1,
                  374, 373, 375, -1,
                  376, 375, 377, -1,
                  378, 376, 377, -1,
                  378, 379, 376, -1,
                  378, 380, 379, -1,
                  379, 380, 381, -1,
                  381, 380, 382, -1,
                  383, 382, 384, -1,
                  385, 384, 386, -1,
                  387, 386, 388, -1,
                  387, 385, 386, -1,
                  370, 371, 372, -1,
                  372, 373, 374, -1,
                  374, 375, 376, -1,
                  381, 382, 383, -1,
                  383, 384, 385, -1,
                  386, 389, 388, -1,
                  388, 389, 390, -1,
                  390, 389, 391, -1,
                  392, 391, 393, -1,
                  293, 393, 394, -1,
                  281, 394, 359, -1,
                  280, 359, 284, -1,
                  280, 281, 359, -1,
                  390, 391, 392, -1,
                  392, 393, 293, -1,
                  293, 394, 281, -1,
                  287, 284, 359, -1,
                  341, 363, 342, -1,
                  342, 363, 365, -1,
                  343, 361, 341, -1,
                  341, 361, 363, -1,
                  289, 291, 343, -1,
                  343, 291, 361, -1,
                  344, 392, 292, -1,
                  292, 392, 293, -1,
                  344, 345, 392, -1,
                  392, 345, 390, -1,
                  346, 388, 345, -1,
                  345, 388, 390, -1,
                  347, 387, 346, -1,
                  346, 387, 388, -1,
                  347, 348, 387, -1,
                  387, 348, 385, -1,
                  348, 349, 385, -1,
                  385, 349, 383, -1,
                  349, 350, 383, -1,
                  383, 350, 381, -1,
                  350, 351, 381, -1,
                  381, 351, 379, -1,
                  351, 352, 379, -1,
                  379, 352, 376, -1,
                  352, 353, 376, -1,
                  376, 353, 374, -1,
                  353, 354, 374, -1,
                  374, 354, 372, -1,
                  354, 355, 372, -1,
                  372, 355, 370, -1,
                  355, 356, 370, -1,
                  370, 356, 368, -1,
                  356, 357, 368, -1,
                  368, 357, 367, -1,
                  342, 365, 357, -1,
                  357, 365, 367, -1,
                  366, 364, 395, -1,
                  395, 364, 396, -1,
                  364, 362, 396, -1,
                  396, 362, 397, -1,
                  362, 360, 397, -1,
                  397, 360, 398, -1,
                  360, 358, 398, -1,
                  398, 358, 399, -1,
                  358, 359, 399, -1,
                  399, 359, 400, -1,
                  359, 394, 400, -1,
                  400, 394, 401, -1,
                  394, 393, 401, -1,
                  401, 393, 402, -1,
                  393, 391, 402, -1,
                  402, 391, 403, -1,
                  391, 389, 403, -1,
                  403, 389, 404, -1,
                  389, 386, 404, -1,
                  404, 386, 405, -1,
                  386, 384, 405, -1,
                  405, 384, 406, -1,
                  384, 382, 406, -1,
                  406, 382, 407, -1,
                  380, 408, 382, -1,
                  382, 408, 407, -1,
                  380, 378, 408, -1,
                  408, 378, 409, -1,
                  378, 377, 409, -1,
                  409, 377, 410, -1,
                  377, 375, 410, -1,
                  410, 375, 411, -1,
                  375, 373, 411, -1,
                  411, 373, 412, -1,
                  371, 413, 373, -1,
                  373, 413, 412, -1,
                  371, 369, 413, -1,
                  413, 369, 414, -1,
                  369, 366, 414, -1,
                  414, 366, 395, -1,
                  413, 414, 406, -1,
                  407, 413, 406, -1,
                  407, 408, 413, -1,
                  413, 408, 409, -1,
                  412, 409, 411, -1,
                  412, 413, 409, -1,
                  396, 403, 395, -1,
                  396, 397, 403, -1,
                  403, 397, 402, -1,
                  402, 397, 398, -1,
                  399, 402, 398, -1,
                  399, 400, 402, -1,
                  402, 400, 401, -1,
                  403, 404, 395, -1,
                  395, 404, 405, -1,
                  406, 395, 405, -1,
                  406, 414, 395, -1,
                  409, 410, 411, -1
                ]
              }
            }
          ]
        }
      ]
    }
  ]
}
