1,1,,0.000,45.000,0.000,90.000,0.000,45.000,0.000,200.000,50.000,PTP,EACH,0.0,0.0,Trap,0,0,0,0,0,,,,,,,,,,,,
2,2,,-16.916,47.740,0.000,84.687,0.000,47.573,-16.916,200.000,20.000,NOAP,ARC,0.0,0.0,Trap,0,0,0,0,0,657.608,-200.001,225.788,-1.000000,0.000008,0.000000,0.000008,1.000000,0.000000,0.000000,0.000000,-1.000000
3,0,,0.000,33.210,0.000,87.859,0.000,58.931,0.000,200.000,20.000,NOAP,ARC,0.0,0.0,Trap,0,0,0,0,0,657.609,0.000,375.785,-1.000000,0.000000,0.000000,0.000000,1.000000,0.000000,0.000000,0.000000,-1.000000
4,0,,16.916,47.740,0.000,84.687,0.000,47.573,16.916,200.000,20.000,NOAP,ARC,0.0,0.0,Trap,0,0,0,0,0,657.607,200.001,225.783,-1.000000,-0.000008,-0.000007,-0.000008,1.000000,-0.000002,0.000007,-0.000002,-1.000000
5,3,,14.788,57.793,0.000,65.153,0.000,57.053,14.788,200.000,20.000,NOAP,ARC,0.0,0.0,Trap,0,0,0,0,0,757.610,200.000,225.786,-1.000000,0.000000,0.000007,0.000000,1.000000,0.000002,-0.000007,0.000002,-1.000000
6,0,,0.000,63.390,0.000,68.865,0.000,47.744,0.000,200.000,20.000,NOAP,ARC,0.0,0.0,Trap,0,0,0,0,0,757.611,0.000,125.792,-1.000000,0.000000,0.000008,0.000000,1.000000,0.000000,-0.000008,0.000000,-1.000000
7,0,,-14.788,57.793,0.000,65.153,0.000,57.053,-14.788,200.000,20.000,NOAP,ARC,0.0,0.0,Trap,0,0,0,0,0,757.610,-200.000,225.786,-1.000000,0.000000,0.000007,0.000000,1.000000,-0.000002,-0.000007,-0.000002,-1.000000
8,4,,-13.127,72.038,0.000,37.431,0.000,70.530,-13.127,200.000,20.000,NOAP,ARC,0.0,0.0,Trap,0,0,0,0,0,857.609,-200.003,225.785,-1.000000,0.000008,0.000000,0.000008,1.000000,0.000000,0.000000,0.000000,-1.000000
9,0,,0.000,61.812,0.000,44.372,0.000,73.817,0.000,200.000,20.000,NOAP,ARC,0.0,0.0,Trap,0,0,0,0,0,857.608,0.000,325.782,-1.000000,0.000000,-0.000008,0.000000,1.000000,0.000000,0.000008,0.000000,-1.000000
10,0,,13.127,72.038,0.000,37.431,0.000,70.530,13.127,200.000,20.000,NOAP,ARC,0.0,0.0,Trap,0,0,0,0,0,857.609,200.003,225.792,-1.000000,-0.000008,0.000008,-0.000008,1.000000,0.000002,-0.000008,0.000002,-1.000000
11,5,,13.127,72.038,0.000,37.432,0.000,70.530,13.127,200.000,50.000,PTP,EACH,0.0,0.0,Trap,0,0,1,0,0,,,,,,,,,,,,
